<?xml version="1.0" encoding="UTF-8" standalone="no"?>
<!-- Generator: Adobe Illustrator 20.1.0, SVG Export Plug-In . SVG Version: 6.00 Build 0)  -->

<svg
   xmlns:dc="http://purl.org/dc/elements/1.1/"
   xmlns:cc="http://creativecommons.org/ns#"
   xmlns:rdf="http://www.w3.org/1999/02/22-rdf-syntax-ns#"
   xmlns:svg="http://www.w3.org/2000/svg"
   xmlns="http://www.w3.org/2000/svg"
   xmlns:sodipodi="http://sodipodi.sourceforge.net/DTD/sodipodi-0.dtd"
   xmlns:inkscape="http://www.inkscape.org/namespaces/inkscape"
   version="1.1"
   id="Layer_1"
   x="0px"
   y="0px"
   viewBox="0 0 46 46"
   xml:space="preserve"
   inkscape:version="0.48.4 r9939"
   width="100%"
   height="100%"
   sodipodi:docname="Thumbsup.svg"><metadata
     id="metadata13"><rdf:RDF><cc:Work
         rdf:about=""><dc:format>image/svg+xml</dc:format><dc:type
           rdf:resource="http://purl.org/dc/dcmitype/StillImage" /></cc:Work></rdf:RDF></metadata><defs
     id="defs11" /><sodipodi:namedview
     pagecolor="#ffffff"
     bordercolor="#666666"
     borderopacity="1"
     objecttolerance="10"
     gridtolerance="10"
     guidetolerance="10"
     inkscape:pageopacity="0"
     inkscape:pageshadow="2"
     inkscape:window-width="1366"
     inkscape:window-height="719"
     id="namedview9"
     showgrid="false"
     fit-margin-top="0"
     fit-margin-left="0"
     fit-margin-right="0"
     fit-margin-bottom="0"
     inkscape:zoom="0.33125"
     inkscape:cx="429.4"
     inkscape:cy="-217.3"
     inkscape:window-x="0"
     inkscape:window-y="0"
     inkscape:window-maximized="1"
     inkscape:current-layer="Layer_1" /><style
     type="text/css"
     id="style3">
	.st0{fill:#494949;}
</style><g
     id="g5"
     transform="matrix(1.4935065,0,0,1.3939394,-75.57143,-41.400002)"><path
       class="st0"
       d="m 81.3,48 c 0,1 -0.3,2 -0.9,2.7 0.6,0.8 0.9,1.7 0.9,2.7 0,2.4 -2,4.3 -4.4,4.3 H 61.3 l -5,4.9 c -0.1,0.1 -0.2,0.1 -0.3,0.1 0,0 -0.2,0 -0.2,0 -0.2,-0.1 -0.3,-0.2 -0.3,-0.3 v -4.6 c -2.6,0 -4.9,-2.3 -4.9,-5.1 v -9.4 c 0,-2.8 2.3,-5.2 5.1,-5.2 h 5.5 c 0.2,0 0.4,0.2 0.4,0.4 0,0.2 -0.2,0.4 -0.4,0.4 h -5.5 c -2.3,0 -4.4,2 -4.4,4.4 v 9.4 c 0,2.4 2,4.4 4.4,4.4 H 56 c 0.2,0 0.2,0.2 0.2,0.4 v 4.1 l 4.5,-4.4 C 60.8,57 61,57 61.1,57 H 77 c 2,0 3.6,-1.5 3.6,-3.5 0,-0.8 -0.3,-1.8 -0.8,-2.2 H 78 c -0.2,0 -0.4,-0.2 -0.4,-0.4 0,-0.2 0.2,-0.4 0.4,-0.4 h 1.7 c 0,0 0.1,-0.1 0.1,-0.2 0.5,-0.7 0.8,-1.5 0.8,-2.3 0,-0.9 -0.3,-1.7 -0.9,-2.5 H 78 c -0.2,0 -0.4,-0.2 -0.4,-0.4 0,-0.2 0.2,-0.4 0.4,-0.4 h 1.7 c 0.6,-0.8 0.9,-1.6 0.9,-2.4 0,-2 -1.6,-3.6 -3.6,-3.6 h -6 c -0.2,0 -0.4,-0.2 -0.4,-0.4 0,-0.2 0.2,-0.4 0.4,-0.4 h 0.8 c 0.9,-2.3 0.8,-5.3 0.8,-5.3 l 0,0 c 0,-1.2 -0.9,-2.2 -2.2,-2.2 -1.2,0 -2.2,1 -2.2,2.2 0,3.8 -5,7.4 -5.1,7.5 -2.3,1.6 -3.7,4.2 -3.7,7 0,3 1.6,5.8 4.2,7.3 0.2,0.1 0.3,0.3 0.2,0.5 -0.1,0.1 -0.2,0.2 -0.3,0.2 -0.1,0 -0.1,0 -0.2,0 -2.8,-1.6 -4.6,-4.7 -4.6,-7.9 0,-3.1 1.5,-5.9 4,-7.6 0,0 4.8,-3.5 4.8,-6.9 0,-1.7 1.3,-3 2.9,-3 1.6,0 2.9,1.3 2.9,3 l 0,0 c 0,0.2 0.1,3 -0.7,5.3 H 77 c 2.4,0 4.4,2 4.4,4.4 0,1 -0.3,2 -1,2.8 0.6,0.8 0.9,1.8 0.9,2.8 z"
       id="path7"
       inkscape:connector-curvature="0"
       style="fill:#494949" /></g></svg>