<?xml version="1.0" encoding="UTF-8" standalone="no"?>
<!-- Generator: Adobe Illustrator 20.1.0, SVG Export Plug-In . SVG Version: 6.00 Build 0)  -->

<svg
   xmlns:dc="http://purl.org/dc/elements/1.1/"
   xmlns:cc="http://creativecommons.org/ns#"
   xmlns:rdf="http://www.w3.org/1999/02/22-rdf-syntax-ns#"
   xmlns:svg="http://www.w3.org/2000/svg"
   xmlns="http://www.w3.org/2000/svg"
   xmlns:sodipodi="http://sodipodi.sourceforge.net/DTD/sodipodi-0.dtd"
   xmlns:inkscape="http://www.inkscape.org/namespaces/inkscape"
   version="1.1"
   id="Layer_1"
   x="0px"
   y="0px"
   viewBox="0 0 46 46"
   xml:space="preserve"
   inkscape:version="0.48.4 r9939"
   width="100%"
   height="100%"
   sodipodi:docname="Train.svg"><metadata
     id="metadata69"><rdf:RDF><cc:Work
         rdf:about=""><dc:format>image/svg+xml</dc:format><dc:type
           rdf:resource="http://purl.org/dc/dcmitype/StillImage" /></cc:Work></rdf:RDF></metadata><defs
     id="defs67" /><sodipodi:namedview
     pagecolor="#ffffff"
     bordercolor="#666666"
     borderopacity="1"
     objecttolerance="10"
     gridtolerance="10"
     guidetolerance="10"
     inkscape:pageopacity="0"
     inkscape:pageshadow="2"
     inkscape:window-width="1366"
     inkscape:window-height="719"
     id="namedview65"
     showgrid="false"
     fit-margin-top="0"
     fit-margin-left="0"
     fit-margin-right="0"
     fit-margin-bottom="0"
     inkscape:zoom="0.33125"
     inkscape:cx="418.175"
     inkscape:cy="-206.9"
     inkscape:window-x="0"
     inkscape:window-y="0"
     inkscape:window-maximized="1"
     inkscape:current-layer="Layer_1" /><style
     type="text/css"
     id="style3">
	.st0{fill:#494949;}
	.st1{fill:#C6C6C6;stroke:#494949;stroke-width:2;stroke-miterlimit:10;}
	.st2{fill:#C6C6C6;}
	.st3{fill:#2978CE;}
	.st4{fill:#97D3C7;}
	.st5{opacity:0.5;}
	.st6{fill:#FFFFFF;}
	.st7{fill:#FFE94D;}
	
		.st8{opacity:0.61;fill:none;stroke:#FFFFFF;stroke-width:2;stroke-linecap:round;stroke-linejoin:round;stroke-miterlimit:10;enable-background:new    ;}
</style><g
     id="g5"
     transform="matrix(1.3971147,0,0,1.5488216,-86.376616,-67.218858)"><g
       id="g7"><path
         class="st0"
         d="M 89.7,70.7 H 66.4 c -0.2,0 -0.3,-0.1 -0.3,-0.3 0,-0.2 0.1,-0.3 0.3,-0.3 h 23.3 c 0.2,0 0.3,0.1 0.3,0.3 0,0.1 -0.2,0.3 -0.3,0.3 z"
         id="path9"
         inkscape:connector-curvature="0"
         style="fill:#494949" /></g><g
       id="g11"><path
         class="st0"
         d="M 86.3,67.1 H 69.9 c -0.2,0 -0.3,-0.1 -0.3,-0.3 0,-0.2 0.1,-0.3 0.3,-0.3 h 16.3 c 0.2,0 0.3,0.1 0.3,0.3 0.1,0.2 0,0.3 -0.2,0.3 z"
         id="path13"
         inkscape:connector-curvature="0"
         style="fill:#494949" /></g><path
       class="st1"
       d="M 69.5,59.8"
       id="path15"
       inkscape:connector-curvature="0"
       style="fill:#c6c6c6;stroke:#494949;stroke-width:2;stroke-miterlimit:10" /><path
       class="st1"
       d="M 86.7,59.8"
       id="path17"
       inkscape:connector-curvature="0"
       style="fill:#c6c6c6;stroke:#494949;stroke-width:2;stroke-miterlimit:10" /><g
       id="g19"><g
         id="g21"><path
           class="st2"
           d="M 69.5,59.7 V 47.1 c 0,-1.9 1.6,-3.4 3.5,-3.4 h 10.2 c 1.9,0 3.5,1.5 3.5,3.4 v 12.6"
           id="path23"
           inkscape:connector-curvature="0"
           style="fill:#c6c6c6" /></g><g
         id="g25"><path
           class="st0"
           d="M 69.1,59.7 V 47.1 c 0,-2 1.7,-3.7 3.8,-3.7 h 10.2 c 2.1,0 3.8,1.7 3.8,3.7 V 59.7 H 86.3 V 47.1 C 86.3,45.4 84.9,44 83.1,44 H 73 c -1.8,0 -3.2,1.4 -3.2,3.1 v 12.6 h -0.7 z"
           id="path27"
           inkscape:connector-curvature="0"
           style="fill:#494949" /></g></g><g
       id="g29"><path
         class="st0"
         d="m 94.6,72.5 -8.8,-8.6 c 0,0 -0.1,-0.1 -0.1,-0.1 0.8,-1.2 1.3,-2.7 1.3,-4.2 0,-0.2 -0.2,-0.3 -0.3,-0.3 H 69.5 c -0.2,0 -0.3,0.2 -0.3,0.3 0,1.6 0.5,3.1 1.4,4.3 l 0,0 -8.7,8.5 c -0.1,0.1 -0.1,0.3 0,0.4 0.1,0.1 0.2,0.1 0.2,0.1 0.1,0 0.2,0 0.2,-0.1 L 71,64.4 c 1.7,2.1 4.3,3.5 7.1,3.5 2.9,0 5.6,-1.5 7.3,-3.6 0,0 0,0 0,0.1 l 8.8,8.6 c 0.1,0.1 0.2,0.1 0.2,0.1 0.1,0 0.2,0 0.2,-0.1 0.2,-0.2 0.2,-0.4 0,-0.5 z M 78.1,67.4 C 73.8,67.4 70,64 69.8,60 h 16.5 c -0.2,3.9 -3.9,7.4 -8.2,7.4 z"
         id="path31"
         inkscape:connector-curvature="0"
         style="fill:#494949" /><path
         class="st3"
         d="m 86.3,60 c -0.2,3.9 -4,7.4 -8.3,7.4 -4.3,0 -8.1,-3.4 -8.3,-7.4 h 16.6 z"
         id="path33"
         inkscape:connector-curvature="0"
         style="fill:#2978ce" /></g><g
       id="g35"><path
         class="st4"
         d="m 74.4,56 c -2.3,-0.7 -3.1,-1.7 -3.1,-3.1 v -4.8 c 0,-1.7 1.3,-2.4 3,-2.4 H 78 V 57 l -3.6,-1 z"
         id="path37"
         inkscape:connector-curvature="0"
         style="fill:#97d3c7" /><path
         class="st0"
         d="m 78.1,57.3 c -0.1,0 -0.1,0 0,0 l -3.8,-1 C 72,55.6 71,54.6 71,52.9 v -4.8 c 0,-1.7 1.2,-2.7 3.3,-2.7 H 78 c 0.2,0 0.3,0.1 0.3,0.3 V 57 c 0,0.1 0,0.2 -0.1,0.3 0,-0.1 -0.1,0 -0.1,0 z M 74.3,46 c -0.8,0 -2.7,0.2 -2.7,2.1 v 4.8 c 0,0.9 0.3,2 2.8,2.8 l 3.3,0.9 V 46 h -3.4 z"
         id="path39"
         inkscape:connector-curvature="0"
         style="fill:#494949" /></g><g
       id="g41"><path
         class="st4"
         d="m 81.8,56 c 2.3,-0.7 3.1,-1.7 3.1,-3.1 v -4.8 c 0,-1.7 -1.3,-2.4 -3,-2.4 H 78.2 V 57 l 3.6,-1 z"
         id="path43"
         inkscape:connector-curvature="0"
         style="fill:#97d3c7" /><path
         class="st0"
         d="M 78.1,57.3 C 78,57.3 78,57.3 77.9,57.2 77.8,57.1 77.8,57 77.8,56.9 V 45.6 c 0,-0.2 0.1,-0.3 0.3,-0.3 h 3.7 c 2.1,0 3.3,1 3.3,2.7 v 4.8 c 0,1.6 -1.1,2.7 -3.3,3.4 l -3.7,1.1 c 0,0 0,0 0,0 z M 78.4,46 v 10.6 l 3.3,-0.9 c 2.5,-0.8 2.8,-1.9 2.8,-2.8 V 48.1 C 84.5,46.2 82.6,46 81.8,46 h -3.4 z"
         id="path45"
         inkscape:connector-curvature="0"
         style="fill:#494949" /></g><g
       class="st5"
       id="g47"
       style="opacity:0.5"><path
         class="st6"
         d="m 73,49.6 c -0.4,0 -0.6,-0.3 -0.6,-0.6 0,-2.1 1.6,-2.1 2.3,-2.1 0.4,0 0.6,0.3 0.6,0.6 0,0.4 -0.3,0.6 -0.6,0.6 -0.9,0 -1.1,0.1 -1.1,0.8 0,0.4 -0.2,0.7 -0.6,0.7 z"
         id="path49"
         inkscape:connector-curvature="0"
         style="fill:#ffffff" /></g><g
       id="g51"><circle
         class="st7"
         cx="83.300003"
         cy="60.599998"
         r="1.6"
         id="circle53"
         sodipodi:cx="83.300003"
         sodipodi:cy="60.599998"
         sodipodi:rx="1.6"
         sodipodi:ry="1.6"
         style="fill:#ffe94d"
         d="m 84.900003,60.599998 c 0,0.883656 -0.716344,1.6 -1.6,1.6 -0.883656,0 -1.6,-0.716344 -1.6,-1.6 0,-0.883655 0.716344,-1.6 1.6,-1.6 0.883656,0 1.6,0.716345 1.6,1.6 z" /><path
         class="st0"
         d="m 83.3,62.5 c -1.1,0 -1.9,-0.9 -1.9,-1.9 0,-1 0.9,-1.9 1.9,-1.9 1.1,0 1.9,0.9 1.9,1.9 0,1 -0.8,1.9 -1.9,1.9 z m 0,-3.1 c -0.7,0 -1.3,0.6 -1.3,1.3 0,0.7 0.6,1.3 1.3,1.3 0.7,0 1.3,-0.6 1.3,-1.3 0,-0.7 -0.6,-1.3 -1.3,-1.3 z"
         id="path55"
         inkscape:connector-curvature="0"
         style="fill:#494949" /></g><g
       id="g57"><circle
         class="st7"
         cx="72.800003"
         cy="60.599998"
         r="1.6"
         id="circle59"
         sodipodi:cx="72.800003"
         sodipodi:cy="60.599998"
         sodipodi:rx="1.6"
         sodipodi:ry="1.6"
         style="fill:#ffe94d"
         d="m 74.400003,60.599998 c 0,0.883656 -0.716344,1.6 -1.6,1.6 -0.883656,0 -1.6,-0.716344 -1.6,-1.6 0,-0.883655 0.716344,-1.6 1.6,-1.6 0.883656,0 1.6,0.716345 1.6,1.6 z" /><path
         class="st0"
         d="m 72.8,62.5 c -1.1,0 -1.9,-0.9 -1.9,-1.9 0,-1 0.9,-1.9 1.9,-1.9 1,0 1.9,0.9 1.9,1.9 0,1 -0.8,1.9 -1.9,1.9 z m 0,-3.1 c -0.7,0 -1.3,0.6 -1.3,1.3 0,0.7 0.6,1.3 1.3,1.3 0.7,0 1.3,-0.6 1.3,-1.3 0,-0.7 -0.6,-1.3 -1.3,-1.3 z"
         id="path61"
         inkscape:connector-curvature="0"
         style="fill:#494949" /></g><path
       class="st8"
       d="m 77.6,66.1 c -1.4,0 -2.7,-0.4 -3.8,-1.2"
       id="path63"
       inkscape:connector-curvature="0"
       style="opacity:0.61000001;fill:none;stroke:#ffffff;stroke-width:2;stroke-linecap:round;stroke-linejoin:round;stroke-miterlimit:10;enable-background:new" /></g></svg>