<?xml version="1.0" encoding="UTF-8" standalone="no"?>
<!-- Generator: Adobe Illustrator 20.1.0, SVG Export Plug-In . SVG Version: 6.00 Build 0)  -->

<svg
   xmlns:dc="http://purl.org/dc/elements/1.1/"
   xmlns:cc="http://creativecommons.org/ns#"
   xmlns:rdf="http://www.w3.org/1999/02/22-rdf-syntax-ns#"
   xmlns:svg="http://www.w3.org/2000/svg"
   xmlns="http://www.w3.org/2000/svg"
   xmlns:sodipodi="http://sodipodi.sourceforge.net/DTD/sodipodi-0.dtd"
   xmlns:inkscape="http://www.inkscape.org/namespaces/inkscape"
   version="1.1"
   id="Layer_1"
   x="0px"
   y="0px"
   viewBox="0 0 46 46"
   xml:space="preserve"
   inkscape:version="0.48.4 r9939"
   width="100%"
   height="100%"
   sodipodi:docname="Working.svg"><metadata
     id="metadata35"><rdf:RDF><cc:Work
         rdf:about=""><dc:format>image/svg+xml</dc:format><dc:type
           rdf:resource="http://purl.org/dc/dcmitype/StillImage" /></cc:Work></rdf:RDF></metadata><defs
     id="defs33" /><sodipodi:namedview
     pagecolor="#ffffff"
     bordercolor="#666666"
     borderopacity="1"
     objecttolerance="10"
     gridtolerance="10"
     guidetolerance="10"
     inkscape:pageopacity="0"
     inkscape:pageshadow="2"
     inkscape:window-width="1366"
     inkscape:window-height="719"
     id="namedview31"
     showgrid="false"
     fit-margin-top="0"
     fit-margin-left="0"
     fit-margin-right="0"
     fit-margin-bottom="0"
     inkscape:zoom="0.33125"
     inkscape:cx="393.5"
     inkscape:cy="-181.8"
     inkscape:window-x="0"
     inkscape:window-y="0"
     inkscape:window-maximized="1"
     inkscape:current-layer="Layer_1" /><style
     type="text/css"
     id="style3">
	.st0{fill:none;stroke:#494949;stroke-width:4;stroke-linecap:round;stroke-miterlimit:10;}
	.st1{fill:#494949;}
	.st2{fill:#896025;}
	.st3{fill:#E5BD3C;}
	.st4{fill:#AA7100;}
	.st5{opacity:0.5;fill:#FFFFFF;enable-background:new    ;}
	.st6{fill:#E5BD3C;stroke:#494949;stroke-width:2;stroke-linecap:round;stroke-linejoin:round;stroke-miterlimit:10;}
</style><g
     id="g5"
     transform="matrix(1.3897282,0,0,1.3234465,-120.21149,-83.962446)"><path
       class="st0"
       d="m 110.1,72.1 c -0.4,-3.6 -3.4,-6.3 -7,-6.3 -3.7,0 -6.6,2.8 -7,6.3"
       id="path7"
       inkscape:connector-curvature="0"
       style="fill:none;stroke:#494949;stroke-width:4;stroke-linecap:round;stroke-miterlimit:10" /><g
       id="g9"><path
         class="st1"
         d="M 115.6,74.2 H 90.4 c -2.2,0 -3.9,1.8 -3.9,3.9 v 10.8 c 0,0.2 0.2,0.4 0.4,0.4 h 0.4 v 5 c 0,2.2 1.8,3.9 3.9,3.9 h 23.7 c 2.2,0 3.9,-1.8 3.9,-3.9 v -5 h 0.4 c 0.2,0 0.4,-0.2 0.4,-0.4 V 78.2 c -0.1,-2.2 -1.9,-4 -4,-4 z m 2.5,20.1 c 0,1.8 -1.4,3.2 -3.2,3.2 H 91.2 C 89.4,97.5 88,96.1 88,94.3 v -5 h 11.5 v 3 c 0,0.9 0.8,1.7 1.7,1.7 h 3.8 c 0.9,0 1.7,-0.8 1.7,-1.7 v -3 H 118 l 0.1,5 0,0 z m -18,-2 v -3.8 c 0,-0.5 0.4,-0.9 0.9,-0.9 h 3.8 c 0.5,0 0.9,0.4 0.9,0.9 v 3.8 c 0,0.5 -0.4,0.9 -0.9,0.9 H 101 c -0.4,0 -0.9,-0.4 -0.9,-0.9 z m 18.7,-3.7 h -12.2 v -0.1 c 0,-0.9 -0.8,-1.7 -1.7,-1.7 h -3.8 c -0.9,0 -1.7,0.8 -1.7,1.7 v 0.1 H 87.3 V 78.2 c 0,-1.8 1.4,-3.2 3.2,-3.2 h 25.1 c 1.8,0 3.2,1.4 3.2,3.2 l 0,10.4 0,0 z"
         id="path11"
         inkscape:connector-curvature="0"
         style="fill:#494949" /><path
         class="st2"
         d="m 118.1,89.3 v 5 c 0,1.8 -1.4,3.2 -3.2,3.2 H 91.2 C 89.4,97.5 88,96.1 88,94.3 v -5 h 11.5 v 3 c 0,0.9 0.8,1.7 1.7,1.7 h 3.8 c 0.9,0 1.7,-0.8 1.7,-1.7 v -3 h 11.4 z"
         id="path13"
         inkscape:connector-curvature="0"
         style="fill:#896025" /><path
         class="st2"
         d="m 118.8,78.2 v 10.4 h -12.2 v -0.1 c 0,-0.9 -0.8,-1.7 -1.7,-1.7 h -3.8 c -0.9,0 -1.7,0.8 -1.7,1.7 v 0.1 H 87.3 V 78.2 c 0,-1.8 1.4,-3.2 3.2,-3.2 h 25.1 c 1.7,-0.1 3.2,1.4 3.2,3.2 z"
         id="path15"
         inkscape:connector-curvature="0"
         style="fill:#896025" /><path
         class="st3"
         d="m 105.9,88.4 v 3.8 c 0,0.5 -0.4,0.9 -0.9,0.9 h -3.8 c -0.5,0 -0.9,-0.4 -0.9,-0.9 v -3.8 c 0,-0.5 0.4,-0.9 0.9,-0.9 h 3.8 c 0.4,0 0.9,0.4 0.9,0.9 z"
         id="path17"
         inkscape:connector-curvature="0"
         style="fill:#e5bd3c" /></g><path
       class="st4"
       d="m 103.9,89.5 c 0,-0.5 -0.4,-0.9 -0.9,-0.9 -0.5,0 -0.9,0.4 -0.9,0.9 0,0.4 0.2,0.7 0.5,0.8 l 0,0 v 1.9 c 0,0.2 0.1,0.4 0.4,0.4 0.3,0 0.4,-0.1 0.4,-0.4 v -1.9 l 0,0 c 0.3,-0.2 0.5,-0.5 0.5,-0.8 z"
       id="path19"
       inkscape:connector-curvature="0"
       style="fill:#aa7100" /><circle
       class="st5"
       cx="101.3"
       cy="88.599998"
       r="0.60000002"
       id="circle21"
       sodipodi:cx="101.3"
       sodipodi:cy="88.599998"
       sodipodi:rx="0.60000002"
       sodipodi:ry="0.60000002"
       style="opacity:0.5;fill:#ffffff;enable-background:new"
       d="m 101.9,88.599998 c 0,0.331371 -0.26863,0.6 -0.6,0.6 -0.33137,0 -0.6,-0.268629 -0.6,-0.6 0,-0.33137 0.26863,-0.6 0.6,-0.6 0.33137,0 0.6,0.26863 0.6,0.6 z" /><path
       class="st6"
       d="M 95.9,75.5 C 95.4,75.5 95,75.1 95,74.7 v -2 c 0,-0.4 0.4,-0.8 0.9,-0.8 l 0,0 c 0.5,0 0.9,0.4 0.9,0.8 v 2 c 0,0.4 -0.4,0.8 -0.9,0.8 l 0,0 z"
       id="path23"
       inkscape:connector-curvature="0"
       style="fill:#e5bd3c;stroke:#494949;stroke-width:2;stroke-linecap:round;stroke-linejoin:round;stroke-miterlimit:10" /><path
       class="st6"
       d="m 110.1,75.5 c -0.5,0 -0.9,-0.4 -0.9,-0.8 v -2 c 0,-0.4 0.4,-0.8 0.9,-0.8 l 0,0 c 0.5,0 0.9,0.4 0.9,0.8 v 2 c 0,0.4 -0.4,0.8 -0.9,0.8 l 0,0 z"
       id="path25"
       inkscape:connector-curvature="0"
       style="fill:#e5bd3c;stroke:#494949;stroke-width:2;stroke-linecap:round;stroke-linejoin:round;stroke-miterlimit:10" /><g
       id="g27"><path
         class="st4"
         d="m 95.8,96.1 h -3.3 c -1.8,0 -3.2,-1.4 -3.2,-3.2 0,-0.4 0.3,-0.7 0.7,-0.7 0.4,0 0.7,0.3 0.7,0.7 0,1 0.8,1.8 1.8,1.8 h 3.3 c 0.4,0 0.7,0.3 0.7,0.7 0,0.4 -0.3,0.7 -0.7,0.7 z"
         id="path29"
         inkscape:connector-curvature="0"
         style="fill:#aa7100" /></g></g></svg>