<svg id="big" xmlns="http://www.w3.org/2000/svg" width="341" height="346.969" viewBox="0 0 341 346.969">
  <defs>
    <style>
      .cls-1 {
        fill: #da5f4f;
      }

      .cls-1, .cls-2, .cls-3, .cls-4, .cls-5, .cls-6, .cls-7, .cls-8, .cls-9 {
        fill-rule: evenodd;
      }

      .cls-2 {
        fill: #fdc540;
      }

      .cls-3 {
        fill: #071b3e;
      }

      .cls-4 {
        fill: #c56b57;
      }

      .cls-5 {
        fill: #071c3c;
      }

      .cls-6 {
        fill: #e18674;
      }

      .cls-7 {
        fill: #fffff7;
      }

      .cls-8 {
        fill: #fff;
      }
    </style>
  </defs>
  <path id="Composite_Path" data-name="Composite Path" class="cls-1" d="M321.612,461.96c-94.013,0-170.5-76.025-170.5-169.47s76.487-169.471,170.5-169.471,170.5,76.025,170.5,169.471S415.625,461.96,321.612,461.96Zm0-331.572c-89.927,0-163.087,72.718-163.087,162.1s73.16,162.1,163.087,162.1S484.7,381.873,484.7,292.49,411.538,130.388,321.612,130.388Z" transform="translate(-151.125 -115)"/>
  <path id="Path" class="cls-2" d="M209.392,324.769s-96.619-13.373-31.8-69.293c0,0-8.56-65.646,45.253-64.43,0,0,9.784-54.7,80.722-49.843,0,0,23.238-50.456,64.824-.306,0,0,139.429,55.01,96.623,183.872l-4.893,12.157s7.337,59.569-35.469,86.315c0,0-11.008,12.157-28.132,0Z" transform="translate(-151.125 -115)"/>
  <path id="Path-2" data-name="Path" class="cls-3" d="M335.982,273.666s-1.864-1.511-5-4.274l-5.611-5.023c-2.11-2-4.753-3.954-7.066-6.742-2.4-2.713-5-5.648-7.753-8.757a83.058,83.058,0,0,1-7.884-10.43c-2.566-3.742-5.36-7.541-7.366-11.93-2.2-4.267-4.567-8.538-6.07-13.247l-2.439-6.937q-0.783-3.6-1.553-7.17c-1.336-4.692-1.072-9.6-1.477-14.194,0.329-4.633.373-9.159,1.567-13.275a57.362,57.362,0,0,1,3.634-11.351,53.492,53.492,0,0,1,4.963-8.689,59.21,59.21,0,0,1,4.724-6.016,34.646,34.646,0,0,1,4.915-4.428,57.577,57.577,0,0,0-3.772,5.3,56.523,56.523,0,0,0-3.471,6.5,83.828,83.828,0,0,0-3.374,8.807,72.275,72.275,0,0,0-2.168,10.812c-0.763,3.828-.332,7.994-0.492,12.193,0.59,4.22.706,8.595,1.966,12.923q0.765,3.26,1.534,6.566l2.4,6.415c1.292,4.389,3.471,8.469,5.476,12.538a95.181,95.181,0,0,0,6.49,11.689,113.572,113.572,0,0,0,6.78,10.592c2.316,3.289,4.5,6.4,6.522,9.268,1.933,2.943,4.217,5.368,5.93,7.7,1.795,2.281,3.358,4.267,4.65,5.9C334.592,271.712,335.982,273.666,335.982,273.666Z" transform="translate(-151.125 -115)"/>
  <path id="Path-3" data-name="Path" class="cls-3" d="M222.846,191.046s0.695,1.853,2.042,4.991c1.237,3.176,3.384,7.559,5.99,12.714,1.31,2.58,2.8,5.325,4.441,8.182,1.528,2.917,3.566,5.745,5.365,8.825a143.4,143.4,0,0,0,13.577,17.647l3.768,4.235,4.094,3.842a90.144,90.144,0,0,0,8.289,7.131,85.327,85.327,0,0,0,8.34,5.983,61.044,61.044,0,0,0,7.923,4.8c2.563,1.3,4.8,2.81,6.946,3.8,2.176,0.95,4.069,1.777,5.632,2.461,3.135,1.4,4.927,2.3,4.927,2.3s-1.944-.27-5.354-0.932l-6.167-1.26a70.872,70.872,0,0,1-7.776-2.536q-2.133-.771-4.43-1.605c-1.477-.672-2.939-1.5-4.485-2.281a60.486,60.486,0,0,1-9.4-5.5,68.777,68.777,0,0,1-9.259-7.105l-4.467-4.023-4.115-4.425a109.8,109.8,0,0,1-7.482-9.4c-2.338-3.191-4.224-6.613-6.149-9.826a109.107,109.107,0,0,1-8.13-18.715A82.1,82.1,0,0,1,222.846,191.046Z" transform="translate(-151.125 -115)"/>
  <path id="Path-4" data-name="Path" class="cls-3" d="M177.593,255.476s3.747,2.676,8.97,6.771c5.277,4.058,12.079,9.523,19.043,14.643a234.868,234.868,0,0,0,19.727,13.265c2.849,1.6,5.234,3.051,7,3.893,1.734,0.935,2.74,1.547,2.74,1.547s-1.137,0-3.149-.137a39.794,39.794,0,0,1-8.238-1.4,58.793,58.793,0,0,1-11.019-4.238,82.291,82.291,0,0,1-11.492-7.026,94.7,94.7,0,0,1-10.073-8.808,78.374,78.374,0,0,1-7.584-8.807A52.742,52.742,0,0,1,177.593,255.476Z" transform="translate(-151.125 -115)"/>
  <path id="Path-5" data-name="Path" class="cls-3" d="M368.392,140.9a36.782,36.782,0,0,1,7.83,9.365,31.377,31.377,0,0,1,2.725,5.641,22.775,22.775,0,0,1,1.488,6.235,27.587,27.587,0,0,1-.091,6.581,25.045,25.045,0,0,1-2.034,6.328,16.878,16.878,0,0,1-1.538,2.947l-1.872,2.734a18.888,18.888,0,0,1-2.132,2.475l-2.28,2.349-1,1.037-1.923-.367a22.059,22.059,0,0,0-5.736-.13,21.5,21.5,0,0,0-5.586,1.533,17,17,0,0,0-4.756,3.13c-1.564,1.123-2.584,2.885-3.786,4.44-1.1,1.648-1.788,3.652-2.787,5.422-0.692,1.971-1.224,4.04-1.861,6.055a64.235,64.235,0,0,0-1.1,6.382,36.5,36.5,0,0,0-.7,6.534l-0.359,6.634,0.145,6.71,0.149,6.739,0.593,6.753c0.416,4.508.619,9.063,1.252,13.578,0.551,4.529,1.141,9.063,1.514,13.664-1.492-4.342-2.766-8.757-4.084-13.175a112.405,112.405,0,0,1-3.235-13.452l-1.34-6.814-0.771-6.933c-0.239-2.317-.568-4.627-0.648-6.966v-7.062a35.918,35.918,0,0,1,.424-7.106c0.384-2.371.489-4.759,1.115-7.123,0.68-2.357,1.263-4.735,2.056-7.074a50.147,50.147,0,0,1,3.482-6.753c1.589-2.065,3.008-4.249,5.19-5.871a24.372,24.372,0,0,1,6.766-4.231,26.794,26.794,0,0,1,7.746-1.72,27.264,27.264,0,0,1,7.977.68l-2.924.666,2-1.878a14.688,14.688,0,0,0,1.969-1.9l1.719-2.094a12.489,12.489,0,0,0,1.441-2.252,24.013,24.013,0,0,0,2.132-4.886,23.586,23.586,0,0,0,.72-5.36,25.444,25.444,0,0,0-.536-5.552,28.534,28.534,0,0,0-1.607-5.533A48.042,48.042,0,0,0,368.392,140.9Z" transform="translate(-151.125 -115)"/>
  <path id="Path-6" data-name="Path" class="cls-3" d="M373.894,354.555s1.607-2.007,4.536-5.4a33.712,33.712,0,0,0,4.861-6.361c1.524-2.677,3.536-5.361,5.223-8.689,1.531-3.439,3.468-6.976,5.075-10.937,1.372-4.076,3.178-8.193,4.448-12.7,1.213-4.529,2.744-9.091,3.678-13.941,1.1-4.8,2.208-9.668,2.889-14.643,1.892-9.837,2.815-19.871,3.822-29.257,0.843-9.412,1.419-18.238,1.809-25.833,0.822-15.182.963-25.422,0.963-25.422s0.587,2.5,1.245,6.93c0.619,4.432,1.55,10.779,2.049,18.453a244.009,244.009,0,0,1,.449,26.278c-0.322,4.807-.311,9.8-1.006,14.837-0.51,5.044-1.1,10.164-2.031,15.255-0.789,5.1-2.016,10.138-3.243,15.089-1,5-3,9.689-4.452,14.323-1.5,4.627-3.834,8.822-5.6,12.905-1.98,4.012-4.466,7.52-6.468,10.847-2.114,3.3-4.81,5.908-6.812,8.333a34.853,34.853,0,0,1-5.893,5.552C375.954,353.012,373.894,354.555,373.894,354.555Z" transform="translate(-151.125 -115)"/>
  <path id="Path-7" data-name="Path" class="cls-3" d="M378.448,377.653s1.6-1.227,4.474-3.216c1.422-1.011,3.257-2.116,5.158-3.605,1.8-1.6,3.793-3.389,6.019-5.2,2.27-1.734,4.268-4.317,6.682-6.555,2.461-2.227,4.463-5.166,6.873-7.843,2.484-2.623,4.33-5.947,6.69-8.908,2.251-3.051,4.148-6.444,6.258-9.671,1.882-3.378,3.924-6.678,5.636-10.088,1.64-3.451,3.562-6.7,4.988-10.07,3.182-6.581,5.694-12.949,7.963-18.4,2.092-5.5,4.007-10.092,5.057-13.391,1.151-3.292,1.809-5.17,1.809-5.17a51.782,51.782,0,0,1-.4,5.483,134.077,134.077,0,0,1-8.416,34,147.777,147.777,0,0,1-10.272,21.4c-2.292,3.36-4.362,6.861-6.809,10.041a93.751,93.751,0,0,1-7.587,9.016,71.628,71.628,0,0,1-8.007,7.585c-2.794,2.158-5.168,4.411-7.919,5.932-2.628,1.641-5.086,3.019-7.232,4.224-2.194,1.079-4.2,1.777-5.806,2.475C380.355,377,378.448,377.653,378.448,377.653Z" transform="translate(-151.125 -115)"/>
  <path id="Path-8" data-name="Path" class="cls-4" d="M203.279,326.593s20.653-51.261,140.652-48.627c0,0,31.306,42.4,29.963,87.53,0,0,44.449,32.773,13.567,61.695,0,0-22.127,30.089-97.347-1.518,0,0-47.085,14.589-67.268-22.49C222.846,403.183,139.066,370.36,203.279,326.593Z" transform="translate(-151.125 -115)"/>
  <path id="Path-9" data-name="Path" class="cls-5" d="M313.594,408.249c4.655,6.976,12.553,11.491,20.969,11.077a34.9,34.9,0,0,0,33.261-34.765s-5.187-35.478,14.8-11.232c0,0,35.578,31.613,4.225,61.874a53.2,53.2,0,0,1-28.371,14c-23.669,3.861-67.246.63-76.928-71.553h3.279a15.567,15.567,0,0,1,12.951,6.908Z" transform="translate(-151.125 -115)"/>
  <path id="Path-10" data-name="Path" class="cls-5" d="M245.672,383.514a4.559,4.559,0,0,0-4.786-.507c-12.212,6.166-32.765,8.717-43.316-1.767a28.56,28.56,0,0,1,0-40.561s11.413-10.973-.358-11.952c0,0-49.778-5.829-38.781,43.271a4.957,4.957,0,0,0,.268.852c2.237,5.282,27.147,59.749,86.962,18.313a4.631,4.631,0,0,0,.206-7.5Z" transform="translate(-151.125 -115)"/>
  <path id="Path-11" data-name="Path" class="cls-6" d="M311.481,332.066s-2.408,39.507-34.818,11.548c0,0-17.414-15.776-21.023,2.2a25.48,25.48,0,0,0,10.023,25.361c9.715,7.073,26.094,10.948,48.536-11.589C314.2,359.585,320.617,354.555,311.481,332.066Z" transform="translate(-151.125 -115)"/>
  <path id="Path-12" data-name="Path" class="cls-7" d="M362.637,345.413a22.6,22.6,0,1,1-22.6-22.464A22.537,22.537,0,0,1,362.637,345.413Z" transform="translate(-151.125 -115)"/>
  <path id="Path-13" data-name="Path" class="cls-7" d="M310.648,315.653a22.6,22.6,0,1,1-22.605-22.465A22.538,22.538,0,0,1,310.648,315.653Z" transform="translate(-151.125 -115)"/>
  <path id="Path-14" data-name="Path" class="cls-5" d="M295.38,315.653a7.337,7.337,0,1,1-7.337-7.293A7.316,7.316,0,0,1,295.38,315.653Z" transform="translate(-151.125 -115)"/>
  <path id="Path-15" data-name="Path" class="cls-3" d="M317.406,295.267a35.94,35.94,0,0,0-29.363-15.208v-7.368a43.379,43.379,0,0,1,35.437,18.353Z" transform="translate(-151.125 -115)"/>
  <path id="Path-16" data-name="Path" class="cls-3" d="M367.969,317.135a36.008,36.008,0,0,0-31.585-9.883L335.1,300a43.445,43.445,0,0,1,38.115,11.927Z" transform="translate(-151.125 -115)"/>
  <path id="Path-17" data-name="Path" class="cls-5" d="M347.37,345.413a7.338,7.338,0,1,1-7.337-7.292A7.312,7.312,0,0,1,347.37,345.413Z" transform="translate(-151.125 -115)"/>
  <path id="Path-18" data-name="Path" class="cls-8" d="M251.894,390.173l-2.071,4.25a6.632,6.632,0,0,0,3.106,8.883,6.707,6.707,0,0,0,8.933-3.088l1.177-2.417A38.088,38.088,0,0,1,251.894,390.173Z" transform="translate(-151.125 -115)"/>
  <path id="Path-19" data-name="Path" class="cls-8" d="M264.255,398.269l-1.223,2.514a6.628,6.628,0,0,0,3.105,8.88,6.706,6.706,0,0,0,8.934-3.084l3.75-7.695-0.746-.356A20.086,20.086,0,0,1,264.255,398.269Z" transform="translate(-151.125 -115)"/>
  <path id="Path-20" data-name="Path" class="cls-3" d="M265.663,371.174l-12.376,5.346a47.227,47.227,0,0,0-5.574,2.838,5.36,5.36,0,0,0-1.437,1.22,1.674,1.674,0,0,0,.21-1.5c-0.286-.583-0.2-0.421-0.05-0.356l0.264,0.111,0.651,0.828a68.908,68.908,0,0,0,7.71,8.415,43.952,43.952,0,0,0,4.326,3.63,42.933,42.933,0,0,0,4.662,2.936,23.6,23.6,0,0,0,2.468,1.065,11.591,11.591,0,0,0,2.541.838,8.4,8.4,0,0,0,2.632.468,12.145,12.145,0,0,0,2.722.169l2.805-.223,2.809-.72c1.972-.4,3.7-1.485,5.752-2.176-1.423,1.475-2.741,3.324-4.612,4.454l-2.823,1.792-3.214,1.151a14.12,14.12,0,0,1-3.414.647,12.7,12.7,0,0,1-3.5.026,21.876,21.876,0,0,1-6.808-1.493,31.027,31.027,0,0,1-6.085-3.087,50.607,50.607,0,0,1-5.263-4.095,47.25,47.25,0,0,1-4.521-4.756,38.645,38.645,0,0,1-3.9-5.364l0.908,0.939a6.388,6.388,0,0,1-2.24-2.821,4.857,4.857,0,0,1,.749-4.627,9.283,9.283,0,0,1,3.917-2.727,33.525,33.525,0,0,1,6.949-1.968A59.728,59.728,0,0,1,265.663,371.174Z" transform="translate(-151.125 -115)"/>
  <path id="Composite_Path-2" data-name="Composite Path" class="cls-9" d="M346.193,453.9c-14.269,0-32.606-4-46.947-20.716-3.048-1.116-6.143-2.285-9.382-3.62-7.945,2.033-48.695,10.552-68.723-21.943-44.46,13.553-63.771-28.408-65.859-33.337a9.276,9.276,0,0,1-.464-1.461c-3.543-15.816-1.476-28.073,6.14-36.456,9.114-10.031,23.618-11.535,31.389-11.545-15.365-4.307-35.8-12.906-40.052-28.725-3.337-12.413,3.87-26.581,21.414-42.13-0.676-7.725-1.9-35.705,13.726-52.974,7.923-8.761,18.855-13.337,32.53-13.629,3.42-11.721,19.9-53.1,81.417-49.98,3.171-5.706,12.632-20.119,28.208-22.145,13.226-1.745,27.006,5.89,41.075,22.612,12.1,5.16,139.433,62.951,97.869,188.075l-4.63,11.517c0.811,8.2,4.478,62.457-36.87,88.664-4.546,4.644-15.782,10.178-29.666,2.072a50.947,50.947,0,0,1-7.931,9.667,57.267,57.267,0,0,1-30.354,15A80.273,80.273,0,0,1,346.193,453.9Zm-55.884-32.143,1.252,0.525c3.888,1.634,7.555,3.011,11.164,4.321l0.945,0.346,0.636,0.77c16.079,19.352,38.011,20.392,53.575,17.852a49.775,49.775,0,0,0,26.391-13.01,41.669,41.669,0,0,0,8.462-11.221L394.429,418l4.249,2.249c13.852,9.822,22.315,1.493,23.238.511l0.764-.634c40.352-25.209,33.833-82.173,33.764-82.749l-0.116-.935,5.245-13.035c41.119-123.807-88.989-176.882-94.549-179.08l-0.887-.353-0.6-.73c-12.539-15.114-24.3-22.058-34.98-20.694-15.051,1.953-23.532,20.01-23.615,20.19l-1.068,2.317-2.555-.172c-66.689-4.624-76.433,44.717-76.82,46.818l-0.568,3.094-3.164-.061c-12.734-.231-22.822,3.464-29.8,11.167-15.6,17.216-11.734,48.79-11.691,49.106l0.249,1.958-1.5,1.3c-16.281,14.046-23.2,26.138-20.567,35.935,4.536,16.87,36.3,24.274,45.923,26.141l5.143,1-2.66,4.49a21.771,21.771,0,0,0-1.162,2.191l-0.423.993-0.9.63c-0.944.643-1.8,1.28-2.653,1.917l-2.342,1.734-1.806-.568a7.36,7.36,0,0,0-1.665-.317c-0.322-.036-20.4-2.187-30.467,8.926-5.9,6.509-7.373,16.557-4.39,29.869,1.914,4.605,19.336,42.623,59.557,28.509l2.986-1.047,1.51,2.77c18.514,34.018,62.471,20.868,62.909,20.727Z" transform="translate(-151.125 -115)"/>
</svg>
