<svg xmlns="http://www.w3.org/2000/svg" width="46.094" height="46.406" viewBox="0 0 46.094 46.406">
  <defs>
    <style>
      .cls-1 {
        fill: #da5f4f;
      }

      .cls-1, .cls-10, .cls-2, .cls-3, .cls-4, .cls-5, .cls-6, .cls-7, .cls-8, .cls-9 {
        fill-rule: evenodd;
      }

      .cls-2 {
        fill: #6e7b3e;
      }

      .cls-3 {
        fill: #596231;
      }

      .cls-4 {
        fill: #a0aa4d;
      }

      .cls-5 {
        fill: #ffffa0;
      }

      .cls-7 {
        fill: #8b171a;
      }

      .cls-8 {
        fill: #0e0e0d;
      }

      .cls-9 {
        fill: #2b514f;
      }

      .cls-10 {
        fill: #020505;
      }
    </style>
  </defs>
  <path id="Composite_Path" data-name="Composite Path" class="cls-1" d="M817.992,147.875a23,23,0,1,1,23-23A23.026,23.026,0,0,1,817.992,147.875Zm0-45a22,22,0,1,0,22,22A22.025,22.025,0,0,0,817.992,102.875Z" transform="translate(-795 -101.875)"/>
  <path id="Path" class="cls-2" d="M836.522,132.1h-0.665V123.94h0.665a4.079,4.079,0,0,1,4.079,4.079h0A4.079,4.079,0,0,1,836.522,132.1Z" transform="translate(-795 -101.875)"/>
  <path id="Path-2" data-name="Path" class="cls-3" d="M836.253,130.373h0v-4.709h0a2.355,2.355,0,0,1,2.355,2.355h0A2.354,2.354,0,0,1,836.253,130.373Z" transform="translate(-795 -101.875)"/>
  <path id="Path-3" data-name="Path" class="cls-2" d="M799.679,123.94h0.665V132.1h-0.665a4.078,4.078,0,0,1-4.078-4.078h0A4.078,4.078,0,0,1,799.679,123.94Z" transform="translate(-795 -101.875)"/>
  <path id="Path-4" data-name="Path" class="cls-3" d="M800.213,125.664h0v4.709h0a2.354,2.354,0,0,1-2.354-2.354h0A2.354,2.354,0,0,1,800.213,125.664Z" transform="translate(-795 -101.875)"/>
  <path id="Path-5" data-name="Path" class="cls-4" d="M831.969,141.247l-7.922,4.766a12.422,12.422,0,0,1-6.4,1.778h0a12.419,12.419,0,0,1-6.844-2.056l-6.735-4.445a8.578,8.578,0,0,1-3.851-7.157V123.1a9.753,9.753,0,0,1,9.754-9.753h16.4a9.753,9.753,0,0,1,9.753,9.753v10.8A8.578,8.578,0,0,1,831.969,141.247Z" transform="translate(-795 -101.875)"/>
  <path id="Path-6" data-name="Path" class="cls-5" d="M830.227,125.8c0,2.057-1.668,2.128-3.724,2.128s-3.724-.071-3.724-2.128A3.724,3.724,0,1,1,830.227,125.8Z" transform="translate(-795 -101.875)"/>
  <path id="Path-7" data-name="Path" class="cls-6" d="M827.655,125.8c0,0.636-.515.621-1.152,0.621s-1.153.015-1.153-.621A1.153,1.153,0,1,1,827.655,125.8Z" transform="translate(-795 -101.875)"/>
  <path id="Path-8" data-name="Path" class="cls-5" d="M814.444,125.8c0,2.057-1.667,2.128-3.724,2.128S807,127.859,807,125.8A3.724,3.724,0,1,1,814.444,125.8Z" transform="translate(-795 -101.875)"/>
  <path id="Path-9" data-name="Path" class="cls-6" d="M811.873,125.8c0,0.636-.516.621-1.153,0.621s-1.152.015-1.152-.621A1.153,1.153,0,1,1,811.873,125.8Z" transform="translate(-795 -101.875)"/>
  <path id="Path-10" data-name="Path" class="cls-6" d="M830.315,120.934h-5.336a1.557,1.557,0,0,1-1.557-1.557h0a1.557,1.557,0,0,1,1.694-1.551l5.353,0.546a1.286,1.286,0,0,1,1.132,1.276h0A1.286,1.286,0,0,1,830.315,120.934Z" transform="translate(-795 -101.875)"/>
  <path id="Path-11" data-name="Path" class="cls-6" d="M807.085,121.2h5.336a1.557,1.557,0,0,0,1.557-1.557h0a1.557,1.557,0,0,0-1.693-1.551l-5.353.546a1.287,1.287,0,0,0-1.133,1.277h0A1.286,1.286,0,0,0,807.085,121.2Z" transform="translate(-795 -101.875)"/>
  <path id="Path-12" data-name="Path" class="cls-7" d="M833.373,135.945l-0.442-4.38h-2.305a21.781,21.781,0,0,1-24.25,0H804.07l-0.31,3.076a4.334,4.334,0,0,0,1.6,3.816c2.472,1.984,7.223,5.112,12.806,5.306v0.012c0.112,0,.222,0,0.332-0.006s0.222,0.006.333,0.006v-0.012c6.624-.23,12.078-4.59,13.942-6.27A1.834,1.834,0,0,0,833.373,135.945Z" transform="translate(-795 -101.875)"/>
  <path id="Path-13" data-name="Path" class="cls-5" d="M828.514,134.608a17.36,17.36,0,0,1-10.007,2.928c-4.893,0-9.063-1.365-10.668-2.814h0L807,138.461c2.067,1.984,6.038,5.108,10.7,5.3v0.012c0.094,0,.186,0,0.278-0.006s0.185,0.006.279,0.006v-0.012c5.828-.242,10.571-5.055,11.876-6.509Z" transform="translate(-795 -101.875)"/>
  <path id="Path-14" data-name="Path" class="cls-8" d="M829.661,135.138l-0.35-.53a19.728,19.728,0,0,1-10.778,2.928c-5.27,0-9.762-1.365-11.491-2.814h0l-0.158-.142c1.6,1.5,6.207,3.754,11.65,3.754C823.47,138.333,827.722,136.711,829.661,135.138Z" transform="translate(-795 -101.875)"/>
  <path id="Path-15" data-name="Path" class="cls-5" d="M832.727,132.7v-1.133h-2.1a21.781,21.781,0,0,1-24.25,0h-0.85V133.5c0,1.791,6.089,4.04,13.6,4.04S832.727,134.488,832.727,132.7Z" transform="translate(-795 -101.875)"/>
  <path id="Path-16" data-name="Path" class="cls-9" d="M816.971,122.788c0.092,1.284.139,2.569,0.2,3.854q0.051,0.963.074,1.927l0.014,0.482a1.431,1.431,0,0,1-.052.61,1.592,1.592,0,0,1-.429.454,3.331,3.331,0,0,1-.448.295,3.859,3.859,0,0,1-2,.428l-0.24.022-0.06,0-0.03,0h-0.015l0.065-.01-0.007,0a0.648,0.648,0,0,0-.1.03,0.91,0.91,0,0,0-.272.165,0.88,0.88,0,0,0,.341,1.521,0.667,0.667,0,0,0,.154.023l0.039,0h0.029l-0.067,0h0.008l0.118-.021,0.238-.041c-0.054.016,0.114-.038,0.187-0.057a3.1,3.1,0,0,1,1.129-.092,2.612,2.612,0,0,1,.575.129,5.265,5.265,0,0,1,.492.2,4.932,4.932,0,0,1,.848.544,1.459,1.459,0,0,0,1.372.042,1.477,1.477,0,0,0,.3-0.2,4.414,4.414,0,0,1,.435-0.329,3.641,3.641,0,0,1,1.006-.464,3.3,3.3,0,0,1,.551-0.109,2.033,2.033,0,0,1,.644.01,1.7,1.7,0,0,1,.548.27,0.792,0.792,0,0,0,.287.1,0.853,0.853,0,0,0,.95-0.619,0.891,0.891,0,0,0-.537-1.053,1.206,1.206,0,0,0-.285-0.066l-0.241.019-0.219.031a3.009,3.009,0,0,1-1.1-.078,4.073,4.073,0,0,1-1.771-1.056l-0.116-.11,0-.128c0.031-1.123.064-2.246,0.126-3.369s0.1-2.246.181-3.369c0.08,1.123.127,2.246,0.182,3.369s0.1,2.246.125,3.369l-0.113-.238a3.381,3.381,0,0,0,1.546.823,2.252,2.252,0,0,0,.813.014l0.255-.05,0.239-.033a1.7,1.7,0,0,1,.66.082,1.765,1.765,0,1,1-1.446,3.209,1.063,1.063,0,0,0-.3-0.17,1.529,1.529,0,0,0-.316.013,2.2,2.2,0,0,0-.392.081,2.692,2.692,0,0,0-.733.348,3.139,3.139,0,0,0-.33.256,2.475,2.475,0,0,1-.5.338,2.415,2.415,0,0,1-2.321-.083,4.7,4.7,0,0,0-.761-0.509c-0.127-.061-0.262-0.116-0.4-0.166a1.751,1.751,0,0,0-.362-0.085,2.25,2.25,0,0,0-.782.058c-0.084.017-.066,0.025-0.277,0.068l-0.239.035-0.119.017-0.089.006h-0.021l-0.04,0-0.081,0a1.667,1.667,0,0,1-.321-0.06,1.77,1.77,0,0,1-1.26-1.99,1.7,1.7,0,0,1,.637-1.075,1.678,1.678,0,0,1,.57-0.29,1.26,1.26,0,0,1,.134-0.033l0.087-.013h0.045l0.061,0,0.241-.007h0.03l0.085,0,0.054,0,0.107,0.009,0.216,0.007a2.939,2.939,0,0,0,.43-0.028,2.789,2.789,0,0,0,.821-0.239,2.754,2.754,0,0,0,.369-0.212c0.08-.052.292-0.232,0.262-0.209a2.025,2.025,0,0,0,.019-0.343l0.013-.482q0.023-.963.075-1.927C816.832,125.357,816.879,124.072,816.971,122.788Z" transform="translate(-795 -101.875)"/>
  <path id="Path-17" data-name="Path" class="cls-6" d="M837.918,124.033c1.2-3.077-1.4-5.72-1.4-5.72,1,0.247,2.194.418,2.194,0.418-0.266-4.389-4.6-6.384-4.6-6.384a5.373,5.373,0,0,0,2.6.2c-2.061-6.982-8.778-4.921-8.778-4.921,0-.664,2.284-1.662,2.284-1.662-5.365-2.726-11.026-.266-11.026-0.266,0.169-1.53,2.691-1.662,2.691-1.662-10.041-3.591-15.76,4.721-15.76,4.721-0.333-1,.864-2.061.864-2.061-4.462-1.131-6.918,5.586-6.918,5.586s0.269,0.665,0-.333a2.383,2.383,0,0,1,.534-1.928c-3.857,1.4-2.393,7.314-2.393,7.314-0.134,1.2-1.929.979-1.929,0.979,0.066,2.441,2.746,3.765,2.746,3.765l-1.177.377,0.855,1.239a2.373,2.373,0,0,0,4.285-.906h0s1.692-6.567,3.266-6.467c0,0,8.179,1.08,10.972-1.846,0,0-.266,2.194-1.33,2.593,0,0,5.631-.531,6.606-2.46,0,0,10.287-2.261,11.881,6.118l1.594,4.938Z" transform="translate(-795 -101.875)"/>
  <path id="Composite_Path-2" data-name="Composite Path" class="cls-10" d="M836.864,124.924l-0.876.74-1.594-4.938a7.153,7.153,0,0,0-3.247-5,7.109,7.109,0,0,1,4.577,5.662Zm-18.3-9.784a5.242,5.242,0,0,1-1.911,1.2,1.548,1.548,0,0,1-.749.727s1-.094,2.226-0.347A6.287,6.287,0,0,0,818.567,115.14Z" transform="translate(-795 -101.875)"/>
  <path id="Composite_Path-3" data-name="Composite Path" class="cls-6" d="M817.643,148.291a12.886,12.886,0,0,1-7.12-2.138l-6.734-4.446a9.054,9.054,0,0,1-4.076-7.574l-0.034-1.536a4.572,4.572,0,0,1-1.553-8.875l-1.061-1.537,0.809-.26a4.824,4.824,0,0,1-2.084-3.6l-0.016-.577,0.575,0.066a2,2,0,0,0,1.2-.217,0.426,0.426,0,0,0,.156-0.247c-0.19-.852-1.253-6.359,2.733-7.8l0.609-.22c1.244-1.86,3.277-3.826,6.068-3.119l0.568,0.144a13.774,13.774,0,0,1,14.373-2.79l1.758,0.628a13.007,13.007,0,0,1,6.635,1.326L831.4,106l-0.97.423c-0.3.133-.606,0.285-0.882,0.437a7.68,7.68,0,0,1,4.128.818,7.466,7.466,0,0,1,3.528,4.729l0.152,0.514-0.524.116a4.387,4.387,0,0,1-.631.077,7.86,7.86,0,0,1,3.017,5.589l0.037,0.611-0.607-.086c-0.027,0-.41-0.059-0.919-0.151a5.777,5.777,0,0,1,.768,4.831,4.566,4.566,0,0,1-1.871,8.69v1.3a9.124,9.124,0,0,1-4.4,7.776l-7.922,4.766A12.925,12.925,0,0,1,817.643,148.291Zm-18.99-25.565,0.472,0.684a1.163,1.163,0,0,0,.145.155l0.772,0.778-0.951.158a3.572,3.572,0,0,0,.588,7.1h1.034v2.536a8.055,8.055,0,0,0,3.627,6.739l6.734,4.446a11.922,11.922,0,0,0,12.716.266l7.921-4.766a8.117,8.117,0,0,0,3.912-6.919v-2.3h0.9a3.568,3.568,0,0,0,1.1-6.966l-0.856-.277,0.734-.619c0.958-2.7-1.308-5.048-1.331-5.072l-1.236-1.26,1.713,0.425c0.51,0.126,1.081.233,1.5,0.306-0.592-3.6-4.2-5.315-4.236-5.333l0.369-.928a4.941,4.941,0,0,0,1.775.244,6.24,6.24,0,0,0-2.855-3.56,7.407,7.407,0,0,0-5.11-.453l-0.647.2v-0.677c0-.6.744-1.175,1.6-1.644a13.994,13.994,0,0,0-9.646.175l-0.791.344,0.095-.857A2.09,2.09,0,0,1,820.015,104c-8.481-2-13.26,4.736-13.472,5.042l-0.569.824-0.316-.949a2.148,2.148,0,0,1,.371-1.845h-0.017c-3.229,0-5.188,4.686-5.417,5.263l-0.57,1.436-0.429-1.69a2.117,2.117,0,0,1-.062-0.763c-1.771,1.943-.841,5.852-0.83,5.9l0.022,0.086-0.01.089a1.45,1.45,0,0,1-.544.994,2.4,2.4,0,0,1-1.319.438,4.831,4.831,0,0,0,2.405,2.808l1.108,0.547Z" transform="translate(-795 -101.875)"/>
</svg>
