<svg xmlns="http://www.w3.org/2000/svg" width="46" height="46" viewBox="0 0 46 46">
  <defs>
    <style>
      .cls-1 {
        fill: #d95e4f;
      }

      .cls-1, .cls-2, .cls-3, .cls-4, .cls-5, .cls-6, .cls-7, .cls-8, .cls-9 {
        fill-rule: evenodd;
      }

      .cls-2 {
        fill: #c7b470;
      }

      .cls-3 {
        fill: #5b3a1a;
      }

      .cls-4 {
        fill: #ab9757;
      }

      .cls-5 {
        fill: #fff;
      }

      .cls-6 {
        fill: #323232;
      }

      .cls-7 {
        fill: #593423;
      }

      .cls-8 {
        fill: #815746;
      }
    </style>
  </defs>
  <path id="Composite_Path" data-name="Composite Path" class="cls-1" d="M1036.14,218.464a23,23,0,1,1,23-23A23.028,23.028,0,0,1,1036.14,218.464Zm0-45a22,22,0,1,0,22,22A22.025,22.025,0,0,0,1036.14,173.464Z" transform="translate(-1013.12 -172.469)"/>
  <path id="Path" class="cls-2" d="M1046.93,191.706c0-.285,0-0.572-0.02-0.861a10.79,10.79,0,0,0-21.56.656v0.093a12.978,12.978,0,0,1-3.64,9.113,8.61,8.61,0,0,0-2.59,5.942c0,6.189,7.62,11.205,17.02,11.205s17.01-5.016,17.01-11.205a8.612,8.612,0,0,0-2.59-5.943A12.722,12.722,0,0,1,1046.93,191.706Z" transform="translate(-1013.12 -172.469)"/>
  <path id="Path-2" data-name="Path" class="cls-3" d="M1042.28,211.516a10.152,10.152,0,0,0-14.34,0l-0.71-.707a11.148,11.148,0,0,1,15.75,0Z" transform="translate(-1013.12 -172.469)"/>
  <path id="Path-3" data-name="Path" class="cls-3" d="M1023.18,209.261a6.8,6.8,0,0,1-.06-1.718c0.02-.258.05-0.538,0.1-0.831,0.07-.29.11-0.607,0.21-0.917a7.981,7.981,0,0,1,.83-1.9,9.7,9.7,0,0,1,.64-0.861,5.438,5.438,0,0,1,.78-0.7,3.611,3.611,0,0,1,.85-0.494,3.205,3.205,0,0,1,.82-0.275c0.27-.051.51-0.087,0.72-0.113,0.21,0,.4.02,0.55,0.03,0.3,0.024.47,0.048,0.47,0.048s-0.16.055-.45,0.15c-0.14.041-.3,0.091-0.5,0.147-0.18.083-.38,0.177-0.6,0.28a4.438,4.438,0,0,0-.65.387,4.351,4.351,0,0,0-.65.519,8.635,8.635,0,0,0-.61.648,7.523,7.523,0,0,0-.52.762,10.533,10.533,0,0,0-.85,1.664c-0.23.558-.42,1.1-0.58,1.57C1023.38,208.6,1023.18,209.261,1023.18,209.261Z" transform="translate(-1013.12 -172.469)"/>
  <path id="Path-4" data-name="Path" class="cls-3" d="M1023.75,202.37a4.737,4.737,0,0,1,.51.321,6.506,6.506,0,0,1,.88.743,7.317,7.317,0,0,1,.75.876,5.329,5.329,0,0,1,.32.521,1.565,1.565,0,0,1-.63-0.04,2.433,2.433,0,0,1-1.14-.651,2.568,2.568,0,0,1-.66-1.135A1.529,1.529,0,0,1,1023.75,202.37Z" transform="translate(-1013.12 -172.469)"/>
  <path id="Path-5" data-name="Path" class="cls-3" d="M1022.9,204.058a4.377,4.377,0,0,1,.52.32,8.246,8.246,0,0,1,.88.743,7.113,7.113,0,0,1,.74.877,3.691,3.691,0,0,1,.32.521,1.572,1.572,0,0,1-.63-0.041,2.487,2.487,0,0,1-1.14-.65,2.55,2.55,0,0,1-.65-1.136A1.651,1.651,0,0,1,1022.9,204.058Z" transform="translate(-1013.12 -172.469)"/>
  <path id="Path-6" data-name="Path" class="cls-4" d="M1040.45,201.011c0,1.376-2.23,2.492-4.98,2.492s-4.99-1.116-4.99-2.492,2.24-2.492,4.99-2.492S1040.45,199.634,1040.45,201.011Z" transform="translate(-1013.12 -172.469)"/>
  <path id="Path-7" data-name="Path" class="cls-5" d="M1038.02,197.562l7.05-2.116S1047.13,203.286,1038.02,197.562Z" transform="translate(-1013.12 -172.469)"/>
  <path id="Path-8" data-name="Path" class="cls-6" d="M1043.52,198.305a1.154,1.154,0,1,1,0-1.635A1.151,1.151,0,0,1,1043.52,198.305Z" transform="translate(-1013.12 -172.469)"/>
  <path id="Path-9" data-name="Path" class="cls-7" d="M1022.73,190.839s-0.53-14.578,3.76-15.61l9.11,2.579,10.14-2.579s4.3,0.172,3.79,14.954l0.04,2.75Z" transform="translate(-1013.12 -172.469)"/>
  <path id="Path-10" data-name="Path" class="cls-8" d="M1049.53,190.183c0.02-.663.03-1.286,0.04-1.891h-26.82c-0.05,1.489-.04,2.727-0.03,3.437h26.83Z" transform="translate(-1013.12 -172.469)"/>
  <path id="Path-11" data-name="Path" class="cls-7" d="M1058.14,193.878c0,1.814-9.85,3.285-22,3.285s-22-1.471-22-3.285,9.85-3.285,22-3.285S1058.14,192.064,1058.14,193.878Z" transform="translate(-1013.12 -172.469)"/>
  <path id="Composite_Path-2" data-name="Composite Path" class="cls-9" d="M1036.14,197.663c-7.78,0-22.5-.791-22.5-3.785s14.72-3.785,22.5-3.785,22.5,0.791,22.5,3.785S1043.92,197.663,1036.14,197.663Zm0-6.57c-13.91,0-21.5,1.84-21.5,2.785s7.59,2.785,21.5,2.785,21.5-1.84,21.5-2.785S1050.05,191.093,1036.14,191.093Z" transform="translate(-1013.12 -172.469)"/>
  <path id="Composite_Path-3" data-name="Composite Path" class="cls-9" d="M1036.14,218.354c-9.66,0-17.52-5.25-17.52-11.705a9.123,9.123,0,0,1,2.73-6.287,12.717,12.717,0,0,0,2.27-3.281c-6.63-.677-9.98-1.754-9.98-3.2,0-.5,0-2.007,8.57-3.045V190.15c-0.06-4.309.22-14.461,4.17-15.407l0.12-.03,9.11,2.577,10.08-2.563,0.08,0c0.45,0.019,4.39.563,4.29,13.566v0.657c-0.01.4-.02,0.816-0.03,1.248l0.01,0.628c8.6,1.038,8.6,2.547,8.6,3.049,0,1.451-3.37,2.528-10,3.205a12.94,12.94,0,0,0,2.28,3.278,9.082,9.082,0,0,1,2.73,6.288C1053.65,213.1,1045.8,218.354,1036.14,218.354Zm-9.65-42.605c-2.55.828-3.37,8.232-3.28,14.4v1.575l-0.44.051c-6.75.778-8.13,1.858-8.13,2.1,0,0.285,1.65,1.506,9.76,2.276l0.68,0.064-0.26.625a13.7,13.7,0,0,1-2.75,4.209,8.137,8.137,0,0,0-2.45,5.6c0,5.9,7.41,10.705,16.52,10.705s16.51-4.8,16.51-10.705a8.141,8.141,0,0,0-2.45-5.6,13.976,13.976,0,0,1-2.77-4.2l-0.26-.628,0.68-.064c8.13-.769,9.79-1.992,9.79-2.278,0-.247-1.39-1.329-8.15-2.107l-0.44-.05-0.02-1.531c0.01-.451.02-0.856,0.03-1.254l0.01-.648c0.08-11.286-2.88-12.445-3.3-12.549l-10.17,2.586Z" transform="translate(-1013.12 -172.469)"/>
</svg>
