<svg xmlns="http://www.w3.org/2000/svg" width="45.157" height="46" viewBox="0 0 45.157 46">
  <defs>
    <style>
      .cls-1 {
        fill: #d95e4f;
      }

      .cls-1, .cls-10, .cls-11, .cls-12, .cls-13, .cls-14, .cls-15, .cls-16, .cls-17, .cls-18, .cls-2, .cls-3, .cls-4, .cls-5, .cls-6, .cls-7, .cls-8, .cls-9 {
        fill-rule: evenodd;
      }

      .cls-2 {
        fill: #583218;
      }

      .cls-3 {
        fill: #321b12;
      }

      .cls-4 {
        fill: #b6cdcf;
      }

      .cls-5 {
        fill: #6c3b25;
      }

      .cls-6 {
        fill: #82552e;
      }

      .cls-8 {
        fill: #fff;
      }

      .cls-9 {
        fill: #412113;
      }

      .cls-10 {
        fill: #e6c297;
      }

      .cls-11 {
        fill: #ae845f;
      }

      .cls-12 {
        fill: #985b3f;
      }

      .cls-13 {
        fill: #9a9a9a;
      }

      .cls-14 {
        fill: #687071;
      }

      .cls-15 {
        fill: #5a524f;
      }

      .cls-16 {
        fill: #d3a77b;
      }

      .cls-17 {
        fill: #39393e;
      }

      .cls-18 {
        fill: #cac9c9;
      }
    </style>
  </defs>
  <path id="Composite_Path" data-name="Composite Path" class="cls-1" d="M746.606,427.514A21.614,21.614,0,1,1,768.22,405.9,21.638,21.638,0,0,1,746.606,427.514Zm0-42.228A20.614,20.614,0,1,0,767.22,405.9,20.637,20.637,0,0,0,746.606,385.286Z" transform="translate(-723.062 -383.844)"/>
  <path id="Path" class="cls-2" d="M746.745,425.215h9.763A6.5,6.5,0,0,0,763,418.331l-0.917-15.691-18.013,5.566v14.335A2.674,2.674,0,0,0,746.745,425.215Z" transform="translate(-723.062 -383.844)"/>
  <path id="Path-2" data-name="Path" class="cls-3" d="M746.745,425.215h6.992l-0.66-22.575-9.006,5.566v14.335A2.674,2.674,0,0,0,746.745,425.215Z" transform="translate(-723.062 -383.844)"/>
  <path id="Path-3" data-name="Path" class="cls-4" d="M755.9,403.645l1.523,1.866-2.6,8.139-4.556-4.7-2.962,4.7-1.034-8.38Z" transform="translate(-723.062 -383.844)"/>
  <path id="Path-4" data-name="Path" class="cls-5" d="M739.783,391.6c-0.1,1.212,4.058,4.654,4.058,4.654s9.9-6.2,6.634-8.522C747.366,385.522,739.978,389.116,739.783,391.6Z" transform="translate(-723.062 -383.844)"/>
  <path id="Path-5" data-name="Path" class="cls-6" d="M754.5,402.64s9.609-7.93,12.716-5.754-9.09,4.972-7.614,15.074c0,0-2.969-1.4-3.7,2.719a33.535,33.535,0,0,0-.544,7.148l-1.429-.932a44.934,44.934,0,0,1-.459-13.083A10.274,10.274,0,0,0,754.5,402.64Z" transform="translate(-723.062 -383.844)"/>
  <path id="Path-6" data-name="Path" class="cls-2" d="M739.469,413.2l-1.546,10.452s6.833,0.227,6.678,0,3.26-10.889,3.26-10.889l-6.012,1.4Z" transform="translate(-723.062 -383.844)"/>
  <path id="Composite_Path-2" data-name="Composite Path" class="cls-7" d="M742.757,424.264c-1.037,0-2.57-.035-4.851-0.11l-0.56-.018,1.721-11.635,2.823,1.14,6.716-1.563-0.269.839c-1.169,3.649-3.008,9.541-3.222,10.6l0.072,0.106-0.146.282C744.921,424.125,744.845,424.264,742.757,424.264Zm-4.258-1.091c2.381,0.072,4.849.106,5.679,0.06,0.187-.95.881-3.339,2.938-9.782l-5.307,1.235-1.938-.783Z" transform="translate(-723.062 -383.844)"/>
  <path id="Path-7" data-name="Path" class="cls-6" d="M737.787,403l7.619,1.761,3.5,2.074a52.545,52.545,0,0,1-1.325,6.819c-0.7,2.193-2.033,9.22-2.514,7.122s-3.74-3.125-2.78-9.745c0.121-.839-3.175-4.682-5.16-6.91A0.683,0.683,0,0,1,737.787,403Z" transform="translate(-723.062 -383.844)"/>
  <path id="Composite_Path-3" data-name="Composite Path" class="cls-7" d="M756.508,425.715h-9.763a3.178,3.178,0,0,1-3.174-3.174v-3.384c-1.078-1.463-2.462-3.5-1.781-8.2-0.009-.071-0.21-1.09-5.039-6.506a1.183,1.183,0,0,1,1.149-1.94l7.761,1.817,3.316,1.966c2.382-1.363,4.892-3.105,5.02-3.664l-0.007-.244,0.186-.131c1.014-.836,10-8.11,13.322-5.777h0a1.468,1.468,0,0,1,.722,1.135c0.038,0.926-.969,1.764-2.363,2.923A26.038,26.038,0,0,0,762.6,403.6l0.9,14.7A7,7,0,0,1,756.508,425.715Zm-18.884-22.236a0.167,0.167,0,0,0-.148.089,0.176,0.176,0,0,0,.022.217c5.455,6.118,5.334,6.956,5.281,7.314-0.642,4.435.653,6.188,1.694,7.6l0.1,0.132v3.713a2.177,2.177,0,0,0,2.174,2.174h9.763a6,6,0,0,0,5.994-6.355l-0.926-15.091,0.127-.153a25.99,25.99,0,0,1,3.515-3.349c0.993-.827,2.02-1.681,2-2.113a0.614,0.614,0,0,0-.3-0.359c-2.015-1.406-8.358,2.659-11.983,5.624-0.456,1.276-3.767,3.291-5.805,4.433l-0.866.484,0.1-.742-3.148-1.867-7.543-1.743A0.232,0.232,0,0,0,737.624,403.479Z" transform="translate(-723.062 -383.844)"/>
  <path id="Path-8" data-name="Path" class="cls-8" d="M753.58,401.485c0,3.324-1.678,4.645-4.119,4.645s-3.716-1.267-3.716-4.59,0.974-6.071,3.416-6.071S753.58,398.162,753.58,401.485Z" transform="translate(-723.062 -383.844)"/>
  <path id="Path-9" data-name="Path" class="cls-9" d="M763.4,390.2c0,3.186-8.525,11.481-8.525,11.481l-1.705-3.4-2.746-5.825-3.125,2.448s3.28-12.238,9.263-10.373S763.4,390.2,763.4,390.2Z" transform="translate(-723.062 -383.844)"/>
  <path id="Path-10" data-name="Path" class="cls-10" d="M750.428,392.457s3.7,8.418,5.18,9.894-3.108,2.693-4.248,5.387-5.8,1.5-4.506-.622-2.228-1.139-2.228-1.139,1.327-3.885,5.636-1.088c0,0,2.912-.828,2.912-3.263s-2.912-5.854-2.912-5.854-1.7,8.392-4.651,8.132c0,0,.052-1.4-0.57-1.4s-1.968.415-1.3-1.968S749.133,392.043,750.428,392.457Z" transform="translate(-723.062 -383.844)"/>
  <path id="Path-11" data-name="Path" class="cls-10" d="M753.174,392.975c1.583,0.37,3.936,8.336,0,5.307l-1.467-3.023S751.62,392.612,753.174,392.975Z" transform="translate(-723.062 -383.844)"/>
  <path id="Path-12" data-name="Path" class="cls-11" d="M747.9,398.09a0.948,0.948,0,0,1,0,1.4c-0.7.777-2.862,3.017-2.862,3.017h0" transform="translate(-723.062 -383.844)"/>
  <path id="Path-13" data-name="Path" class="cls-12" d="M736.831,396.575s-4.041,2.875-.738,3.458,12.991,1.576,12.808-9.449C748.9,390.584,744.8,399.761,736.831,396.575Z" transform="translate(-723.062 -383.844)"/>
  <path id="Composite_Path-4" data-name="Composite Path" class="cls-7" d="M739.574,400.856a20.7,20.7,0,0,1-3.568-.331,1.793,1.793,0,0,1-1.681-1.179c-0.3-1.313,1.794-2.878,2.215-3.178a0.5,0.5,0,0,1,.476-0.057c7.419,2.966,11.269-5.375,11.429-5.731a0.5,0.5,0,0,1,.956.2c0.061,3.66-.94,6.4-2.973,8.132A10.386,10.386,0,0,1,739.574,400.856Zm-2.667-3.715c-0.867.666-1.7,1.588-1.607,1.985a1.066,1.066,0,0,0,.88.415c2.393,0.421,6.823.775,9.6-1.594a7.915,7.915,0,0,0,2.534-5.352C746.585,395.157,742.741,399.309,736.907,397.141Z" transform="translate(-723.062 -383.844)"/>
  <path id="Path-14" data-name="Path" class="cls-13" d="M738.816,416.711l4.746,8.59-3.772,4.037c-4.613-5.02-2.461-9.463-4.458-9.949-2.622-.638-7.225-6.569-7.225-6.569l0.3-1.248-4.137-2.348s2.859-2.2,1.521-5.14l8.762,7.782,2.068-1.265,1.238,1.055h0" transform="translate(-723.062 -383.844)"/>
  <path id="Path-15" data-name="Path" class="cls-14" d="M724,406.018c-0.541,1.379-.492,2.788.109,3.145s1.529-.471,2.07-1.851,0.493-2.788-.109-3.145S724.543,404.638,724,406.018Z" transform="translate(-723.062 -383.844)"/>
  <path id="Composite_Path-5" data-name="Composite Path" class="cls-7" d="M724.144,409.628a0.941,0.941,0,0,1-.494-0.137c-0.883-.541-0.679-2.278-0.114-3.664h0a3.75,3.75,0,0,1,1.822-2.235,0.986,0.986,0,0,1,.837.08c0.884,0.541.679,2.278,0.115,3.663a3.747,3.747,0,0,1-1.823,2.236A1.1,1.1,0,0,1,724.144,409.628Zm1.525-5.106a3.062,3.062,0,0,0-1.208,1.682h0a3.256,3.256,0,0,0-.285,2.437,3.063,3.063,0,0,0,1.207-1.683A3.25,3.25,0,0,0,725.669,404.522ZM724,406.016h0Z" transform="translate(-723.062 -383.844)"/>
  <path id="Path-16" data-name="Path" class="cls-15" d="M743.562,425.3l-4.746-8.59s-3.639,7.607.974,12.627Z" transform="translate(-723.062 -383.844)"/>
  <path id="Path-17" data-name="Path" class="cls-16" d="M733.827,418.075s1.749-1.558,2.965-.343c0.8,0.8-.72,1.185-1.592,1.745a0.877,0.877,0,0,0,.355.749c0.905,0.359,3.075-.961,3.5.632,0.277,1.037-1.531.85-2.437,1.076a1,1,0,0,0-.647.214c0.5,0.163,2.187-.42,2.777.108,0.758,0.677-2.376,2.011-3.377,1.654-1.127-.4-2.695-4.012-2.751-4.293A1.623,1.623,0,0,1,733.827,418.075Z" transform="translate(-723.062 -383.844)"/>
  <path id="Path-18" data-name="Path" class="cls-7" d="M735.372,424.41a0.5,0.5,0,0,1-.168-0.029c-1.436-.512-3.037-4.483-3.073-4.666a1.754,1.754,0,0,1,1.179-2.1,0.5,0.5,0,0,1,.37.93,0.761,0.761,0,0,0-.569.979c0.137,0.481,1.531,3.44,2.351,3.885l1.212-.07a0.5,0.5,0,1,1,.058,1l-1.332.077h-0.028Z" transform="translate(-723.062 -383.844)"/>
  <path id="Path-19" data-name="Path" class="cls-16" d="M737.9,411.748s2.543-.343,2.128,1.516,0.248,5.177-1.61,3.585S737.9,411.748,737.9,411.748Z" transform="translate(-723.062 -383.844)"/>
  <path id="Path-20" data-name="Path" class="cls-7" d="M739.79,429.839h0a0.506,0.506,0,0,1-.367-0.162,12.619,12.619,0,0,1-3.106-5.76,0.5,0.5,0,0,1,.974-0.229,11.335,11.335,0,0,0,2.51,4.908l3.15-3.371-4.262-7.714a0.5,0.5,0,1,1,.874-0.485L744,425.059a0.5,0.5,0,0,1-.072.584l-3.772,4.038A0.5,0.5,0,0,1,739.79,429.839Z" transform="translate(-723.062 -383.844)"/>
  <path id="Path-21" data-name="Path" class="cls-7" d="M733.125,418.616a0.5,0.5,0,0,1-.313-0.11,38.34,38.34,0,0,1-5.1-5.379,0.5,0.5,0,0,1-.091-0.425l0.215-.882-3.809-2.162a0.5,0.5,0,0,1-.059-0.83c0.1-.08,2.526-2,1.372-4.537a0.5,0.5,0,0,1,.787-0.581l8.485,7.536,1.753-1.072a0.5,0.5,0,0,1,.585.046l1.237,1.055a0.5,0.5,0,1,1-.648.762l-0.962-.82-1.76,1.076a0.5,0.5,0,0,1-.592-0.053l-7.581-6.733a5.136,5.136,0,0,1-1.523,3.623l3.537,2.008a0.5,0.5,0,0,1,.239.552L728.65,412.7a36.836,36.836,0,0,0,4.788,5.026A0.5,0.5,0,0,1,733.125,418.616Z" transform="translate(-723.062 -383.844)"/>
  <path id="Composite_Path-6" data-name="Composite Path" class="cls-7" d="M739.213,417.771a1.868,1.868,0,0,1-1.116-.543c-2.1-1.8-.72-5.5-0.659-5.659a0.5,0.5,0,0,1,.4-0.316,3,3,0,0,1,2.359.6,1.614,1.614,0,0,1,.324,1.523,10.894,10.894,0,0,0-.167,1.772c-0.053,1.257-.095,2.251-0.788,2.552A0.88,0.88,0,0,1,739.213,417.771Zm-0.94-5.547c-0.251.823-.809,3.145,0.475,4.245a1.122,1.122,0,0,0,.469.3,10.846,10.846,0,0,0,.137-1.666,11.552,11.552,0,0,1,.19-1.949,0.629,0.629,0,0,0-.084-0.628A1.671,1.671,0,0,0,738.273,412.224Z" transform="translate(-723.062 -383.844)"/>
  <path id="Path-22" data-name="Path" class="cls-17" d="M733.5,419.322a0.5,0.5,0,0,1-.46-0.3,3.274,3.274,0,0,1,.242-3.032,0.5,0.5,0,0,1,.846.533,2.277,2.277,0,0,0-.168,2.106,0.5,0.5,0,0,1-.263.656A0.492,0.492,0,0,1,733.5,419.322Z" transform="translate(-723.062 -383.844)"/>
  <path id="Path-23" data-name="Path" class="cls-17" d="M735.241,420.363c-0.069,0-.138,0-0.206-0.006a2.168,2.168,0,0,1-2-1.338,0.5,0.5,0,1,1,.919-0.393c0.531,1.238,2.335.624,3.086,0.3a0.5,0.5,0,0,1,.394.92A5.859,5.859,0,0,1,735.241,420.363Z" transform="translate(-723.062 -383.844)"/>
  <path id="Path-24" data-name="Path" class="cls-18" d="M749.963,398.663a3.676,3.676,0,0,1,.52.4,5.691,5.691,0,0,1,.464.48c0.155,0.188.311,0.4,0.461,0.613,0.134,0.226.254,0.46,0.359,0.684a3.819,3.819,0,0,1,.2.647,2.145,2.145,0,0,1,.036.66s-0.1-.246-0.267-0.58c-0.081-.17-0.2-0.353-0.309-0.558s-0.245-.415-0.388-0.62c-0.255-.429-0.547-0.84-0.746-1.168S749.963,398.663,749.963,398.663Z" transform="translate(-723.062 -383.844)"/>
  <path id="Path-25" data-name="Path" class="cls-18" d="M748.84,400.766a3.489,3.489,0,0,1,.519.4,5.4,5.4,0,0,1,.465.48c0.155,0.188.311,0.4,0.461,0.613,0.134,0.225.253,0.461,0.359,0.683a3.856,3.856,0,0,1,.2.648,2.146,2.146,0,0,1,.036.66s-0.1-.246-0.267-0.58c-0.081-.171-0.2-0.354-0.31-0.559s-0.245-.414-0.388-0.619c-0.255-.429-0.546-0.841-0.745-1.169S748.84,400.766,748.84,400.766Z" transform="translate(-723.062 -383.844)"/>
  <path id="Path-26" data-name="Path" class="cls-18" d="M752.458,398.9a7.009,7.009,0,0,1-.342.934c-0.128.268-.266,0.589-0.458,0.909s-0.4.657-.635,0.984a11.3,11.3,0,0,1-.768.891,5.807,5.807,0,0,1-.792.659,3.368,3.368,0,0,1-.9.442l0.214-.17a6.651,6.651,0,0,0,.53-0.462c0.212-.2.429-0.456,0.669-0.725a11.248,11.248,0,0,0,.7-0.894c0.472-.612.894-1.267,1.228-1.752S752.458,398.9,752.458,398.9Z" transform="translate(-723.062 -383.844)"/>
  <path id="Composite_Path-7" data-name="Composite Path" class="cls-7" d="M754.639,401.181c1.682-1.657,3.307-3.395,4.821-5.2a33.732,33.732,0,0,0,2.122-2.805,13.126,13.126,0,0,0,.86-1.486,4.6,4.6,0,0,0,.311-0.759,3.4,3.4,0,0,0,.151-0.724l0.012,0.109a4.611,4.611,0,0,0-.347-0.836,6.6,6.6,0,0,0-.518-0.816,7.815,7.815,0,0,0-1.348-1.416,10.19,10.19,0,0,0-1.637-1.117c-0.3-.148-0.584-0.321-0.895-0.448s-0.609-.279-0.929-0.383-0.653-.239-0.933-0.315a3.286,3.286,0,0,0-.912-0.136,3.476,3.476,0,0,0-1.753.44,8.224,8.224,0,0,0-2.753,2.73l-0.281.416-0.434-.3a0.432,0.432,0,0,1,.052.034l0,0-0.009,0-0.015-.009-0.033-.017L750.1,388.1l-0.128-.072-0.257-.141a1.94,1.94,0,0,0-.469-0.164,1.694,1.694,0,0,0-.488-0.107c-0.177-.018-0.348-0.06-0.529-0.061a8.4,8.4,0,0,0-2.19.229,12.187,12.187,0,0,0-4.087,1.823,7.5,7.5,0,0,0-.841.7,2.43,2.43,0,0,0-.355.388,1.63,1.63,0,0,0-.28.409l-0.116.206-0.044.2-0.028.1-0.008.025,0,0.007c0,0.019,0-.162,0-0.083v0l0,0.019,0.009,0.072,0.017,0.147c0.013,0.026.028,0.038,0.038,0.057a4.14,4.14,0,0,0,.529.808,26.13,26.13,0,0,0,3.281,3.2l0.554,0.473-0.631.349a8.218,8.218,0,0,1-3.687,1.046,9.282,9.282,0,0,1-3.749-.7l0.476-.057a8.8,8.8,0,0,0-1.171,1.025,3.784,3.784,0,0,0-.456.57,0.938,0.938,0,0,0-.188.492c-0.018.1,0.044,0.137,0.182,0.245,0.095,0.036.168,0.089,0.276,0.122l0.343,0.085c0.239,0.055.534,0.094,0.787,0.133l0.8,0.1a12.955,12.955,0,0,0,6.269-.7l1.11-.467-0.465,1.147-0.255.627-0.125.3-0.089.359a3.306,3.306,0,0,0-.079.607,0.6,0.6,0,0,0,.076.341,0.505,0.505,0,0,0,.324.068c0.1,0,.207-0.007.336-0.016l0.211-.01a0.838,0.838,0,0,1,.356.066,0.984,0.984,0,0,1,.521.518,2.007,2.007,0,0,1,.152.467,3.894,3.894,0,0,1,.072.848v0.017l-0.455-.517a1.27,1.27,0,0,0,.845-0.24,3.461,3.461,0,0,0,.78-0.754,10.091,10.091,0,0,0,1.182-2.051,27.256,27.256,0,0,0,1.544-4.627l0-.013,0.121-.521,0.329,0.4a19.572,19.572,0,0,1,1.638,2.35,10.289,10.289,0,0,1,1.139,2.645,5.3,5.3,0,0,1,.13.728,4.289,4.289,0,0,1,.012.739,3.233,3.233,0,0,1-.186.764,2.966,2.966,0,0,1-.36.682,4.519,4.519,0,0,1-1.07,1.089,6.129,6.129,0,0,1-1.337.759l-0.026.01-0.2.068-0.211-.129-0.677-.419c-0.232-.12-0.469-0.227-0.706-0.335a4.5,4.5,0,0,0-.729-0.2,2.825,2.825,0,0,0-.732-0.046c-0.12,0-.234.042-0.354,0.058a1.726,1.726,0,0,0-.341.113,1.692,1.692,0,0,0-.323.164,1.994,1.994,0,0,0-.3.213,3.307,3.307,0,0,0-.894,1.211l0,0.014-0.388-.411a5.842,5.842,0,0,1,1.211-.314,3.437,3.437,0,0,1,.667-0.036,1.459,1.459,0,0,1,.793.236,0.915,0.915,0,0,1,.344.458,1.213,1.213,0,0,1,.051.517c-0.03.132-.066,0.263-0.106,0.392-0.047.112-.1,0.213-0.152,0.319a4.585,4.585,0,0,0-.208.482,0.226,0.226,0,0,1,0,.116c0,0.044.025,0.1,0.026,0.145a1.047,1.047,0,0,0,.523.541,2.617,2.617,0,0,0,.935.248,2.645,2.645,0,0,0,.977-0.112,2.171,2.171,0,0,0,.82-0.456,3.431,3.431,0,0,0,.292-0.358l0.112-.207,0.057-.1,0.084-.165a4.93,4.93,0,0,1,.712-1.085,11.361,11.361,0,0,1,1.839-1.654l0.938-.705a4.461,4.461,0,0,0,.774-0.7,0.434,0.434,0,0,0,.1-0.155l0.041-.068a0.079,0.079,0,0,1,0-.04,0.063,0.063,0,0,0-.007-0.073,0.165,0.165,0,0,0-.064-0.109l-0.97-1.3Zm1.01,0.394,0.464,0.6a1.182,1.182,0,0,1,.281.9c-0.009.085-.022,0.17-0.039,0.253l-0.09.2a1.292,1.292,0,0,1-.21.34,5.3,5.3,0,0,1-.95.908c-0.317.253-.642,0.482-0.95,0.715a10.362,10.362,0,0,0-1.679,1.485,3.651,3.651,0,0,0-.585.88l-0.31.565a4.137,4.137,0,0,1-.458.55,3.187,3.187,0,0,1-1.226.681,3.71,3.71,0,0,1-1.355.147,3.6,3.6,0,0,1-1.33-.37,2.027,2.027,0,0,1-1.017-1.158,2.2,2.2,0,0,1-.064-0.436,3.549,3.549,0,0,1,.075-0.469,4,4,0,0,1,.271-0.594l0.115-.207a1.342,1.342,0,0,1,.061-0.175,0.272,0.272,0,0,0,0-.072,1.624,1.624,0,0,0-.833-0.131,9.369,9.369,0,0,0-1.111.1l-0.568.085,0.18-.5,0.008-.024a4.044,4.044,0,0,1,.416-0.829,3.719,3.719,0,0,1,.6-0.711,2.857,2.857,0,0,1,.37-0.3,3.021,3.021,0,0,1,.866-0.416,4.337,4.337,0,0,1,.472-0.106,3.681,3.681,0,0,1,.95.006,5.52,5.52,0,0,1,.908.2c0.282,0.109.565,0.22,0.839,0.344l0.784,0.429-0.409-.062,0.013,0a4.557,4.557,0,0,0,1.207-.449,3.7,3.7,0,0,0,.544-0.357,2.583,2.583,0,0,0,.465-0.445,2.418,2.418,0,0,0,.346-0.534,2.893,2.893,0,0,0,.206-0.59l0.041-.35a2.031,2.031,0,0,0,0-.319,3.825,3.825,0,0,0-.1-0.665,9.806,9.806,0,0,0-1.154-2.5,19.006,19.006,0,0,0-1.625-2.258l0.45-.116,0,0.016a27.914,27.914,0,0,1-1.352,4.817,10.873,10.873,0,0,1-1.176,2.281,4.356,4.356,0,0,1-.948,1,2.38,2.38,0,0,1-.67.356,2.164,2.164,0,0,1-.8.11l-0.468-.015,0.012-.5V403.88a2.98,2.98,0,0,0-.051-0.619,1.032,1.032,0,0,0-.073-0.234c-0.01-.057-0.084-0.068.035-0.015,0.167,0.018-.135-0.021,0,0l-0.157.008c-0.117.007-.255,0.018-0.4,0.018a1.881,1.881,0,0,1-.5-0.06,1.2,1.2,0,0,1-.543-0.311,1.488,1.488,0,0,1-.359-1.033,4.259,4.259,0,0,1,.108-0.852l0.089-.358,0.153-.387,0.3-.74,0.645,0.681a13.927,13.927,0,0,1-6.764.775l-0.842-.1c-0.291-.046-0.546-0.078-0.845-0.143l-0.46-.117a3.872,3.872,0,0,1-.479-0.216,1.792,1.792,0,0,1-.459-0.415,1.208,1.208,0,0,1-.2-0.661,1.862,1.862,0,0,1,.34-1.047,4.739,4.739,0,0,1,.574-0.724,9.842,9.842,0,0,1,1.32-1.154l0.216-.159,0.26,0.1a8.307,8.307,0,0,0,3.341.628,7.228,7.228,0,0,0,3.239-.921l-0.077.823a26.921,26.921,0,0,1-3.427-3.356,4.145,4.145,0,0,1-.713-1.175c-0.024-.072-0.049-0.15-0.066-0.216l-0.017-.146-0.008-.072,0-.019,0-.1,0-.011,0.01-.047,0.042-.188,0.1-.373,0.164-.309a2.488,2.488,0,0,1,.379-0.558,3.164,3.164,0,0,1,.435-0.477,8.4,8.4,0,0,1,.96-0.8,13.151,13.151,0,0,1,4.442-1.984,9.381,9.381,0,0,1,2.468-.254,6.32,6.32,0,0,1,.636.073,2.5,2.5,0,0,1,.654.147,3.451,3.451,0,0,1,.632.237l0.57,0.321-0.715.121a9.191,9.191,0,0,1,3.116-3.056,4.493,4.493,0,0,1,2.238-.555,4.419,4.419,0,0,1,1.139.167c0.389,0.106.689,0.232,1.038,0.347s0.662,0.275.994,0.411,0.643,0.323.965,0.482a11.262,11.262,0,0,1,1.794,1.225,8.811,8.811,0,0,1,1.512,1.591,7.736,7.736,0,0,1,.6.94,5.4,5.4,0,0,1,.439,1.085l0.019,0.07-0.007.04a4.23,4.23,0,0,1-.2,1.022,5.506,5.506,0,0,1-.364.893,14.181,14.181,0,0,1-.927,1.6,34.591,34.591,0,0,1-2.188,2.893C758.779,398.348,757.246,399.986,755.649,401.575Z" transform="translate(-723.062 -383.844)"/>
  <path id="Path-27" data-name="Path" class="cls-7" d="M748.9,391.084a0.511,0.511,0,0,1-.158-0.025,0.5,0.5,0,0,1-.316-0.633,10.671,10.671,0,0,1,1.661-3.008,0.5,0.5,0,0,1,.773.634,9.806,9.806,0,0,0-1.486,2.69A0.5,0.5,0,0,1,748.9,391.084Z" transform="translate(-723.062 -383.844)"/>
</svg>
