<svg xmlns="http://www.w3.org/2000/svg" width="46" height="47.094" viewBox="0 0 46 47.094">
  <defs>
    <style>
      .cls-1 {
        fill: #da5f4f;
      }

      .cls-1, .cls-2, .cls-3, .cls-4, .cls-5, .cls-6, .cls-7, .cls-8, .cls-9 {
        fill-rule: evenodd;
      }

      .cls-2 {
        fill: #fdc540;
      }

      .cls-3 {
        fill: #071b3e;
      }

      .cls-4 {
        fill: #c56b57;
      }

      .cls-5 {
        fill: #071c3c;
      }

      .cls-6 {
        fill: #e18674;
      }

      .cls-7 {
        fill: #fffff7;
      }

      .cls-8 {
        fill: #fff;
      }
    </style>
  </defs>
  <path id="Composite_Path" data-name="Composite Path" class="cls-1" d="M818.046,292a23,23,0,1,1,23-23A23.026,23.026,0,0,1,818.046,292Zm0-45a22,22,0,1,0,22,22A22.025,22.025,0,0,0,818.046,247Z" transform="translate(-795.031 -244.906)"/>
  <path id="Path" class="cls-2" d="M802.908,273.375s-13.033-1.814-4.289-9.4c0,0-1.155-8.909,6.1-8.744,0,0,1.32-7.424,10.889-6.765,0,0,3.135-6.847,8.745-.041,0,0,18.809,7.466,13.034,24.954l-0.66,1.65s0.99,8.085-4.785,11.715c0,0-1.485,1.65-3.8,0Z" transform="translate(-795.031 -244.906)"/>
  <path id="Path-2" data-name="Path" class="cls-3" d="M819.985,266.44s-0.252-.2-0.674-0.58l-0.757-.682a9.931,9.931,0,0,1-.953-0.915c-0.325-.368-0.675-0.766-1.046-1.188a11.179,11.179,0,0,1-1.064-1.416,10.871,10.871,0,0,1-.993-1.619,11.709,11.709,0,0,1-.819-1.8l-0.329-.941c-0.071-.326-0.141-0.651-0.21-0.973a10.2,10.2,0,0,1-.2-1.927,8.824,8.824,0,0,1,.211-1.8,7.782,7.782,0,0,1,.491-1.541,7.177,7.177,0,0,1,.669-1.179,8.083,8.083,0,0,1,.637-0.817,4.717,4.717,0,0,1,.663-0.6,8.065,8.065,0,0,0-.509.72,7.891,7.891,0,0,0-.468.882,11.574,11.574,0,0,0-.455,1.2,9.763,9.763,0,0,0-.292,1.467,11.035,11.035,0,0,0-.067,1.655,12.106,12.106,0,0,0,.265,1.754q0.1,0.442.207,0.891l0.324,0.87a10.885,10.885,0,0,0,.738,1.7,12.957,12.957,0,0,0,.876,1.587,15.627,15.627,0,0,0,.914,1.437c0.313,0.446.608,0.869,0.88,1.258s0.569,0.728.8,1.045l0.628,0.8C819.8,266.175,819.985,266.44,819.985,266.44Z" transform="translate(-795.031 -244.906)"/>
  <path id="Path-3" data-name="Path" class="cls-3" d="M804.723,255.227s0.094,0.252.276,0.677c0.166,0.431.456,1.026,0.808,1.726,0.176,0.35.377,0.723,0.6,1.11,0.206,0.4.481,0.78,0.723,1.2a19.592,19.592,0,0,0,1.832,2.4l0.508,0.575,0.552,0.521a12.2,12.2,0,0,0,1.119.968,11.447,11.447,0,0,0,1.125.812,8.216,8.216,0,0,0,1.068.652c0.346,0.177.648,0.381,0.937,0.516l0.76,0.334c0.423,0.189.665,0.312,0.665,0.312s-0.262-.036-0.722-0.126l-0.832-.171a9.483,9.483,0,0,1-1.049-.344l-0.6-.218c-0.2-.091-0.4-0.2-0.605-0.31a8.116,8.116,0,0,1-1.268-.746,9.309,9.309,0,0,1-1.249-.964l-0.6-.546-0.555-.6a14.628,14.628,0,0,1-1.009-1.276c-0.316-.433-0.57-0.9-0.83-1.333a14.926,14.926,0,0,1-1.1-2.54A11.2,11.2,0,0,1,804.723,255.227Z" transform="translate(-795.031 -244.906)"/>
  <path id="Path-4" data-name="Path" class="cls-3" d="M798.619,263.971s0.5,0.363,1.21.919,1.629,1.293,2.568,1.987a31.629,31.629,0,0,0,2.662,1.8c0.384,0.217.706,0.414,0.944,0.528s0.37,0.21.37,0.21-0.153,0-.425-0.019a5.27,5.27,0,0,1-1.111-.19,7.867,7.867,0,0,1-1.486-.575,11.143,11.143,0,0,1-1.551-.953,12.84,12.84,0,0,1-1.359-1.2,10.61,10.61,0,0,1-1.023-1.195A7.166,7.166,0,0,1,798.619,263.971Z" transform="translate(-795.031 -244.906)"/>
  <path id="Path-5" data-name="Path" class="cls-3" d="M824.357,248.421a4.978,4.978,0,0,1,1.056,1.271,4.349,4.349,0,0,1,.368.765,3.107,3.107,0,0,1,.2.847,3.764,3.764,0,0,1-.012.893,3.443,3.443,0,0,1-.274.859,2.368,2.368,0,0,1-.208.4l-0.252.371a2.577,2.577,0,0,1-.288.336l-0.307.318-0.136.141-0.259-.05a2.957,2.957,0,0,0-.774-0.017,2.869,2.869,0,0,0-.753.208,2.3,2.3,0,0,0-.642.424,2.823,2.823,0,0,0-.511.6c-0.149.224-.241,0.5-0.376,0.736-0.093.267-.165,0.548-0.251,0.822s-0.1.578-.149,0.866a5,5,0,0,0-.094.887l-0.048.9,0.019,0.911,0.02,0.914,0.081,0.917c0.056,0.611.083,1.23,0.168,1.842s0.154,1.23.205,1.855c-0.2-.589-0.373-1.189-0.551-1.788a15.35,15.35,0,0,1-.437-1.826l-0.18-.925-0.1-.941c-0.033-.314-0.077-0.628-0.088-0.945v-0.958a4.979,4.979,0,0,1,.057-0.965,9.753,9.753,0,0,1,.151-0.967c0.092-.319.17-0.642,0.277-0.959a6.778,6.778,0,0,1,.47-0.917,3.78,3.78,0,0,1,.7-0.8,3.276,3.276,0,0,1,.913-0.574,3.561,3.561,0,0,1,1.045-.233,3.638,3.638,0,0,1,1.076.092l-0.4.09,0.271-.255a1.962,1.962,0,0,0,.265-0.258l0.232-.284a1.723,1.723,0,0,0,.2-0.306,3.281,3.281,0,0,0,.287-0.663,3.2,3.2,0,0,0,.1-0.728,3.455,3.455,0,0,0-.072-0.753,3.843,3.843,0,0,0-.217-0.751A6.515,6.515,0,0,0,824.357,248.421Z" transform="translate(-795.031 -244.906)"/>
  <path id="Path-6" data-name="Path" class="cls-3" d="M825.1,277.418s0.217-.272.612-0.732a4.6,4.6,0,0,0,.656-0.864c0.205-.363.477-0.727,0.7-1.179,0.207-.467.468-0.947,0.685-1.484,0.185-.554.429-1.112,0.6-1.723s0.37-1.234.5-1.893c0.148-.65.3-1.312,0.39-1.987,0.255-1.335.38-2.7,0.515-3.971,0.114-1.277.192-2.475,0.244-3.5,0.111-2.061.13-3.451,0.13-3.451s0.079,0.34.168,0.941,0.209,1.463.277,2.5a33.469,33.469,0,0,1,.06,3.567c-0.043.652-.042,1.33-0.135,2.013-0.069.685-.149,1.38-0.274,2.071-0.107.692-.272,1.376-0.438,2.047a18.905,18.905,0,0,1-.6,1.944c-0.2.628-.517,1.2-0.755,1.752-0.268.544-.6,1.02-0.873,1.472a11.259,11.259,0,0,1-.919,1.131,4.7,4.7,0,0,1-.795.753C825.377,277.208,825.1,277.418,825.1,277.418Z" transform="translate(-795.031 -244.906)"/>
  <path id="Path-7" data-name="Path" class="cls-3" d="M825.713,280.553s0.216-.167.6-0.437c0.192-.137.439-0.287,0.7-0.489,0.242-.217.511-0.46,0.812-0.706s0.575-.586.9-0.89,0.6-.7.927-1.064,0.584-.807.9-1.209c0.3-.414.559-0.875,0.844-1.313,0.254-.458.529-0.906,0.76-1.369s0.481-.909.673-1.367c0.429-.893.768-1.757,1.074-2.5,0.282-.747.541-1.37,0.682-1.818s0.244-.7.244-0.7a6.929,6.929,0,0,1-.054.744,18.29,18.29,0,0,1-1.135,4.615,20.113,20.113,0,0,1-1.386,2.9c-0.309.456-.588,0.931-0.918,1.362a12.63,12.63,0,0,1-1.024,1.224,9.588,9.588,0,0,1-1.08,1.029,9.055,9.055,0,0,1-1.068.805c-0.355.223-.686,0.41-0.976,0.574-0.3.146-.567,0.241-0.783,0.336C825.971,280.463,825.713,280.553,825.713,280.553Z" transform="translate(-795.031 -244.906)"/>
  <path id="Path-8" data-name="Path" class="cls-4" d="M802.083,273.623s2.787-6.957,18.974-6.6c0,0,4.223,5.754,4.042,11.88,0,0,6,4.448,1.83,8.373,0,0-2.985,4.083-13.132-.206,0,0-6.351,1.98-9.074-3.052C804.723,284.018,793.421,279.563,802.083,273.623Z" transform="translate(-795.031 -244.906)"/>
  <path id="Path-9" data-name="Path" class="cls-5" d="M816.965,284.705a3.251,3.251,0,0,0,2.828,1.5,4.723,4.723,0,0,0,4.487-4.718s-0.7-4.815,2-1.524c0,0,4.8,4.29.57,8.4a7.164,7.164,0,0,1-3.827,1.9c-3.193.524-9.071,0.085-10.377-9.711h0.442a2.1,2.1,0,0,1,1.747.937Z" transform="translate(-795.031 -244.906)"/>
  <path id="Path-10" data-name="Path" class="cls-5" d="M807.8,281.348a0.612,0.612,0,0,0-.645-0.069c-1.648.837-4.42,1.183-5.844-.239a3.893,3.893,0,0,1,0-5.5s1.54-1.49-.048-1.622c0,0-6.715-.791-5.231,5.872a0.578,0.578,0,0,0,.036.116c0.3,0.717,3.662,8.109,11.731,2.485a0.631,0.631,0,0,0,.028-1.017Z" transform="translate(-795.031 -244.906)"/>
  <path id="Path-11" data-name="Path" class="cls-6" d="M816.68,274.366s-0.325,5.362-4.7,1.567c0,0-2.349-2.141-2.836.3a3.468,3.468,0,0,0,1.352,3.442c1.311,0.96,3.52,1.486,6.547-1.572C817.046,278.1,817.912,277.418,816.68,274.366Z" transform="translate(-795.031 -244.906)"/>
  <path id="Path-12" data-name="Path" class="cls-7" d="M823.581,276.177a3.05,3.05,0,1,1-3.05-3.049A3.051,3.051,0,0,1,823.581,276.177Z" transform="translate(-795.031 -244.906)"/>
  <path id="Path-13" data-name="Path" class="cls-7" d="M816.567,272.138a3.049,3.049,0,1,1-3.049-3.049A3.049,3.049,0,0,1,816.567,272.138Z" transform="translate(-795.031 -244.906)"/>
  <path id="Path-14" data-name="Path" class="cls-5" d="M814.508,272.138a0.99,0.99,0,1,1-.99-0.99A0.99,0.99,0,0,1,814.508,272.138Z" transform="translate(-795.031 -244.906)"/>
  <path id="Path-15" data-name="Path" class="cls-3" d="M817.479,269.372a4.838,4.838,0,0,0-3.961-2.064v-1a5.841,5.841,0,0,1,4.78,2.49Z" transform="translate(-795.031 -244.906)"/>
  <path id="Path-16" data-name="Path" class="cls-3" d="M824.3,272.339A4.842,4.842,0,0,0,820.039,271l-0.174-.984a5.84,5.84,0,0,1,5.142,1.618Z" transform="translate(-795.031 -244.906)"/>
  <path id="Path-17" data-name="Path" class="cls-5" d="M821.521,276.177a0.99,0.99,0,1,1-.99-0.99A0.99,0.99,0,0,1,821.521,276.177Z" transform="translate(-795.031 -244.906)"/>
  <path id="Path-18" data-name="Path" class="cls-8" d="M808.642,282.252l-0.28.577a0.9,0.9,0,1,0,1.624.786l0.159-.328A5.12,5.12,0,0,1,808.642,282.252Z" transform="translate(-795.031 -244.906)"/>
  <path id="Path-19" data-name="Path" class="cls-8" d="M810.309,283.351l-0.165.341a0.9,0.9,0,1,0,1.624.786l0.506-1.044-0.1-.048A2.7,2.7,0,0,1,810.309,283.351Z" transform="translate(-795.031 -244.906)"/>
  <path id="Path-20" data-name="Path" class="cls-3" d="M810.5,279.673l-1.669.726a6.2,6.2,0,0,0-.752.385,0.7,0.7,0,0,0-.194.166,0.228,0.228,0,0,0,.028-0.2c-0.039-.079-0.027-0.057-0.007-0.048l0.036,0.015,0.088,0.112a9.3,9.3,0,0,0,1.04,1.142,5.873,5.873,0,0,0,.583.493,5.763,5.763,0,0,0,.629.4,3.049,3.049,0,0,0,.333.145,1.644,1.644,0,0,0,.343.114,1.139,1.139,0,0,0,.355.063,1.611,1.611,0,0,0,.367.023l0.379-.03,0.379-.1a6.851,6.851,0,0,0,.775-0.3,3.3,3.3,0,0,1-.622.6l-0.381.243-0.433.157a1.919,1.919,0,0,1-.461.088,1.735,1.735,0,0,1-.472,0,2.927,2.927,0,0,1-.919-0.2,4.148,4.148,0,0,1-.821-0.419,6.776,6.776,0,0,1-.709-0.555,6.4,6.4,0,0,1-.61-0.646,5.2,5.2,0,0,1-.526-0.728l0.122,0.128a0.869,0.869,0,0,1-.3-0.383,0.663,0.663,0,0,1,.1-0.628,1.249,1.249,0,0,1,.528-0.37,4.447,4.447,0,0,1,.938-0.267A8.016,8.016,0,0,1,810.5,279.673Z" transform="translate(-795.031 -244.906)"/>
  <path id="Composite_Path-2" data-name="Composite Path" class="cls-9" d="M821.362,290.9a8.052,8.052,0,0,1-6.333-2.811c-0.411-.152-0.828-0.31-1.265-0.491-1.072.276-6.569,1.432-9.271-2.978-6,1.839-8.6-3.856-8.884-4.525a1.26,1.26,0,0,1-.063-0.2c-0.478-2.147-.2-3.81.828-4.948a5.779,5.779,0,0,1,4.235-1.567c-2.073-.584-4.83-1.751-5.4-3.9-0.45-1.685.522-3.608,2.889-5.718-0.092-1.048-.256-4.846,1.851-7.189a5.8,5.8,0,0,1,4.388-1.85c0.462-1.591,2.685-7.207,10.983-6.783,0.428-.775,1.7-2.731,3.806-3.006,1.784-.236,3.643.8,5.54,3.069,1.632,0.7,18.81,8.544,13.2,25.525l-0.625,1.563c0.11,1.113.6,8.477-4.973,12.033a3.192,3.192,0,0,1-4,.282,6.945,6.945,0,0,1-1.07,1.312,7.714,7.714,0,0,1-4.1,2.035A10.78,10.78,0,0,1,821.362,290.9Zm-7.538-4.362,0.169,0.071c0.524,0.222,1.019.409,1.506,0.587l0.127,0.047,0.086,0.1a7.392,7.392,0,0,0,7.227,2.423A6.7,6.7,0,0,0,826.5,288a5.653,5.653,0,0,0,1.142-1.523l0.228-.453,0.573,0.305c1.869,1.333,3.011.2,3.135,0.069l0.1-.086c5.444-3.421,4.564-11.152,4.555-11.23l-0.016-.127,0.708-1.769c5.547-16.8-12-24.006-12.755-24.3l-0.119-.048-0.082-.1c-1.691-2.052-3.278-2.994-4.719-2.809-2.03.265-3.174,2.716-3.185,2.74l-0.144.315-0.345-.024c-9-.627-10.31,6.069-10.363,6.354l-0.076.42-0.427-.008a5.024,5.024,0,0,0-4.02,1.516c-2.1,2.336-1.583,6.621-1.577,6.664l0.033,0.266-0.2.176c-2.2,1.906-3.129,3.547-2.774,4.877,0.612,2.289,4.9,3.294,6.195,3.547l0.694,0.136-0.359.609a3.084,3.084,0,0,0-.157.3l-0.057.135-0.122.086c-0.127.087-.243,0.173-0.358,0.26l-0.316.235-0.243-.077a0.964,0.964,0,0,0-.225-0.043c-0.043,0-2.752-.3-4.11,1.212-0.8.883-.994,2.247-0.592,4.053,0.258,0.625,2.608,5.785,8.034,3.869l0.4-.142,0.2,0.376c2.5,4.617,8.427,2.832,8.486,2.813Z" transform="translate(-795.031 -244.906)"/>
</svg>
