
<svg xmlns="http://www.w3.org/2000/svg" xmlns:xlink="http://www.w3.org/1999/xlink" viewBox="-2 -2 504 504" id="menu" style="transform-origin: 50% 50% 0px; transform: translate3d(0px, 0px, 0px); touch-action: none; -webkit-user-select: none;">
	<style>
		#menu {
			display: block;
			margin: 0 auto;
			/*overflow: visible;*/ /* uncomment this if you are using bouncing animations*/
		}

		a { 
			cursor: pointer; /* SVG &lt;a&gt; elements don't get this by default, so you need to explicitly set it */
			outline: none;
		}
		
		/* You can change these default styles any way you want */

		.item .sector {
			transition: all .1s linear;
			fill: #fff;
			stroke: #111;
		}
		
		
		.item:hover .sector, .item:focus .sector {
			fill: #eee;
		}

		.menu-trigger {
			fill: #EA2A55;
			pointer-events: auto; /* KEEP THIS to make sure it stays clickable even when SVG's pointer events is disabled */
		}

		.menu-trigger:hover, .menu-trigger:focus {
			cursor: pointer;
		}
		symbol {
			overflow: visible; /* KEEP THIS so that text will not get cut off it it is wider than the icon width */
		}
	</style>
	<g id="symbolsContainer">    <symbol class="icon icon-" id="icon-1" viewBox="0 0 35 35"><!--Replace the contents of this symbol with the content of your icon--><rect fill="none" stroke="#111" stroke-width="1" width="100%" height="100%"></rect><text fill="#222" x="50%" y="50%" dy=".3em" text-anchor="middle" font-size="1.2em">1</text></symbol>

		<symbol class="icon icon-" id="icon-2" viewBox="0 0 35 35"><!--Replace the contents of this symbol with the content of your icon--><rect fill="none" stroke="#111" stroke-width="1" width="100%" height="100%"></rect><text fill="#222" x="50%" y="50%" dy=".3em" text-anchor="middle" font-size="1.2em">2</text></symbol>

		<symbol class="icon icon-" id="icon-3" viewBox="0 0 35 35"><!--Replace the contents of this symbol with the content of your icon--><rect fill="none" stroke="#111" stroke-width="1" width="100%" height="100%"></rect><text fill="#222" x="50%" y="50%" dy=".3em" text-anchor="middle" font-size="1.2em">3</text></symbol>

		<symbol class="icon icon-" id="icon-4" viewBox="0 0 35 35"><!--Replace the contents of this symbol with the content of your icon--><rect fill="none" stroke="#111" stroke-width="1" width="100%" height="100%"></rect><text fill="#222" x="50%" y="50%" dy=".3em" text-anchor="middle" font-size="1.2em">4</text></symbol>

		<symbol class="icon icon-" id="icon-5" viewBox="0 0 35 35"><!--Replace the contents of this symbol with the content of your icon--><rect fill="none" stroke="#111" stroke-width="1" width="100%" height="100%"></rect><text fill="#222" x="50%" y="50%" dy=".3em" text-anchor="middle" font-size="1.2em">5</text></symbol>

		<symbol class="icon icon-" id="icon-6" viewBox="0 0 35 35"><!--Replace the contents of this symbol with the content of your icon--><rect fill="none" stroke="#111" stroke-width="1" width="100%" height="100%"></rect><text fill="#222" x="50%" y="50%" dy=".3em" text-anchor="middle" font-size="1.2em">6</text></symbol>

		<symbol class="icon icon-" id="icon-7" viewBox="0 0 35 35"><!--Replace the contents of this symbol with the content of your icon--><rect fill="none" stroke="#111" stroke-width="1" width="100%" height="100%"></rect><text fill="#222" x="50%" y="50%" dy=".3em" text-anchor="middle" font-size="1.2em">7</text></symbol>

		<symbol class="icon icon-" id="icon-8" viewBox="0 0 35 35"><!--Replace the contents of this symbol with the content of your icon--><rect fill="none" stroke="#111" stroke-width="1" width="100%" height="100%"></rect><text fill="#222" x="50%" y="50%" dy=".3em" text-anchor="middle" font-size="1.2em">8</text></symbol>

		<symbol class="icon icon-" id="icon-9" viewBox="0 0 35 35"><!--Replace the contents of this symbol with the content of your icon--><rect fill="none" stroke="#111" stroke-width="1" width="100%" height="100%"></rect><text fill="#222" x="50%" y="50%" dy=".3em" text-anchor="middle" font-size="1.2em">9</text></symbol>

		<symbol class="icon icon-" id="icon-10" viewBox="0 0 35 35"><!--Replace the contents of this symbol with the content of your icon--><rect fill="none" stroke="#111" stroke-width="1" width="100%" height="100%"></rect><text fill="#222" x="50%" y="50%" dy=".3em" text-anchor="middle" font-size="1.2em">10</text></symbol>
	</g>
	<g id="itemsContainer">
		<a class="item" id="item-1" role="link" tabindex="0" xlink:href="" xlink:title="" xlink:target="_parent" transform="matrix(1,0,0,1,0,0)" data-svg-origin="250 250" style=""><path fill="none" stroke="#111" stroke-width="1" class="sector" d="M250,250 l250,0 A250,250 0 0,0 452.25424859373686,103.05368692688171 z"></path><use xlink:href="#icon-1" width="35" height="35" x="434.12396240234375" y="166.9884033203125" transform="rotate(72 451.62396240234375 184.4884033203125)"></use></a>
		<a class="item" id="item-2" role="link" tabindex="0" xlink:href="" xlink:title="" xlink:target="_parent" transform="matrix(0.80901,-0.58778,0.58778,0.80901,-99.20056166685515,194.69206447938143)" data-svg-origin="250 250" style=""><path fill="none" stroke="#111" stroke-width="1" class="sector" d="M250,250 l250,0 A250,250 0 0,0 452.25424859373686,103.05368692688171 z"></path><use xlink:href="#icon-2" width="35" height="35" x="434.12396240234375" y="166.9884033203125" transform="rotate(72 451.62396240234375 184.4884033203125)"></use></a>
		<a class="item" id="item-3" role="link" tabindex="0" xlink:href="" xlink:title="" xlink:target="_parent" transform="matrix(0.30901,-0.95105,0.95105,0.30901,-65.01837766752521,410.5098804800515)" data-svg-origin="250 250" style=""><path fill="none" stroke="#111" stroke-width="1" class="sector" d="M250,250 l250,0 A250,250 0 0,0 452.25424859373686,103.05368692688171 z"></path><use xlink:href="#icon-3" width="35" height="35" x="434.12396240234375" y="166.9884033203125" transform="rotate(72 451.62396240234375 184.4884033203125)"></use></a>
		<a class="item" id="item-4" role="link" tabindex="0" xlink:href="" xlink:title="" xlink:target="_parent" transform="matrix(-0.30901,-0.95105,0.95105,-0.30901,89.49011951994842,565.0183776675252)" data-svg-origin="250 250" style=""><path fill="none" stroke="#111" stroke-width="1" class="sector" d="M250,250 l250,0 A250,250 0 0,0 452.25424859373686,103.05368692688171 z"></path><use xlink:href="#icon-4" width="35" height="35" x="434.12396240234375" y="166.9884033203125" transform="rotate(72 451.62396240234375 184.4884033203125)"></use></a>
		<a class="item" id="item-5" role="link" tabindex="0" xlink:href="" xlink:title="" xlink:target="_parent" transform="matrix(-0.80901,-0.58778,0.58778,-0.80901,305.3079355206185,599.2005616668552)" data-svg-origin="250 250" style=""><path fill="none" stroke="#111" stroke-width="1" class="sector" d="M250,250 l250,0 A250,250 0 0,0 452.25424859373686,103.05368692688171 z"></path><use xlink:href="#icon-5" width="35" height="35" x="434.12396240234375" y="166.9884033203125" transform="rotate(72 451.62396240234375 184.4884033203125)"></use></a>
		<a class="item" id="item-6" role="link" tabindex="0" xlink:href="" xlink:title="" xlink:target="_parent" transform="matrix(-1,0,0,-1,500,500)" data-svg-origin="250 250" style=""><path fill="none" stroke="#111" stroke-width="1" class="sector" d="M250,250 l250,0 A250,250 0 0,0 452.25424859373686,103.05368692688171 z"></path><use xlink:href="#icon-6" width="35" height="35" x="434.12396240234375" y="166.9884033203125" transform="rotate(72 451.62396240234375 184.4884033203125)"></use></a>
		<a class="item" id="item-7" role="link" tabindex="0" xlink:href="" xlink:title="" xlink:target="_parent" transform="matrix(-0.80901,0.58778,-0.58778,-0.80901,599.2005616668552,305.30793552061857)" data-svg-origin="250 250" style=""><path fill="none" stroke="#111" stroke-width="1" class="sector" d="M250,250 l250,0 A250,250 0 0,0 452.25424859373686,103.05368692688171 z"></path><use xlink:href="#icon-7" width="35" height="35" x="434.12396240234375" y="166.9884033203125" transform="rotate(72 451.62396240234375 184.4884033203125)"></use></a>
		<a class="item" id="item-8" role="link" tabindex="0" xlink:href="" xlink:title="" xlink:target="_parent" transform="matrix(-0.30901,0.95105,-0.95105,-0.30901,565.0183776675253,89.49011951994851)" data-svg-origin="250 250" style=""><path fill="none" stroke="#111" stroke-width="1" class="sector" d="M250,250 l250,0 A250,250 0 0,0 452.25424859373686,103.05368692688171 z"></path><use xlink:href="#icon-8" width="35" height="35" x="434.12396240234375" y="166.9884033203125" transform="rotate(72 451.62396240234375 184.4884033203125)"></use></a>
		<a class="item" id="item-9" role="link" tabindex="0" xlink:href="" xlink:title="" xlink:target="_parent" transform="matrix(0.30901,0.95105,-0.95105,0.30901,410.5098804800516,-65.01837766752521)" data-svg-origin="250 250" style=""><path fill="none" stroke="#111" stroke-width="1" class="sector" d="M250,250 l250,0 A250,250 0 0,0 452.25424859373686,103.05368692688171 z"></path><use xlink:href="#icon-9" width="35" height="35" x="434.12396240234375" y="166.9884033203125" transform="rotate(72 451.62396240234375 184.4884033203125)"></use></a>
		<a class="item" id="item-10" role="link" tabindex="0" xlink:href="" xlink:title="" xlink:target="_parent" transform="matrix(0.80901,0.58778,-0.58778,0.80901,194.69206447938151,-99.20056166685515)" data-svg-origin="250 250" style=""><path fill="none" stroke="#111" stroke-width="1" class="sector" d="M250,250 l250,0 A250,250 0 0,0 452.25424859373686,103.05368692688171 z"></path><use xlink:href="#icon-10" width="35" height="35" x="434.12396240234375" y="166.9884033203125" transform="rotate(72 451.62396240234375 184.4884033203125)"></use></a>
	</g>
	<g id="trigger" class="trigger menu-trigger" role="button">
		<circle cx="250" cy="250" r="70"></circle>
		<!-- menu button label or icon goes here -->
	</g>
</svg>